p wcnf 68 410 4
3 1 2 3 4 0
3 1 2 3 -4 0
3 1 2 -3 4 0
3 1 -2 3 4 0
3 1 -2 -3 -4 0
3 -1 2 3 4 0
3 -1 2 -3 -4 0
3 -1 -2 3 -4 0
3 -1 -2 -3 4 0
3 -1 -2 -3 -4 0
3 5 6 7 8 0
3 5 6 7 -8 0
3 5 6 -7 8 0
3 5 -6 7 8 0
3 5 -6 -7 -8 0
3 -5 6 7 8 0
3 -5 6 -7 -8 0
3 -5 -6 7 -8 0
3 -5 -6 -7 8 0
3 -5 -6 -7 -8 0
3 9 10 11 12 0
3 9 10 11 -12 0
3 9 10 -11 12 0
3 9 -10 11 12 0
3 9 -10 -11 -12 0
3 -9 10 11 12 0
3 -9 10 -11 -12 0
3 -9 -10 11 -12 0
3 -9 -10 -11 12 0
3 -9 -10 -11 -12 0
3 13 14 15 16 0
3 13 14 15 -16 0
3 13 14 -15 16 0
3 13 -14 15 16 0
3 13 -14 -15 -16 0
3 -13 14 15 16 0
3 -13 14 -15 -16 0
3 -13 -14 15 -16 0
3 -13 -14 -15 16 0
3 -13 -14 -15 -16 0
3 17 18 19 20 0
3 17 18 19 -20 0
3 17 18 -19 20 0
3 17 -18 19 20 0
3 17 -18 -19 -20 0
3 -17 18 19 20 0
3 -17 18 -19 -20 0
3 -17 -18 19 -20 0
3 -17 -18 -19 20 0
3 -17 -18 -19 -20 0
3 21 22 23 24 0
3 21 22 23 -24 0
3 21 22 -23 24 0
3 21 -22 23 24 0
3 21 -22 -23 -24 0
3 -21 22 23 24 0
3 -21 22 -23 -24 0
3 -21 -22 23 -24 0
3 -21 -22 -23 24 0
3 -21 -22 -23 -24 0
3 25 26 27 28 0
3 25 26 27 -28 0
3 25 26 -27 28 0
3 25 -26 27 28 0
3 25 -26 -27 -28 0
3 -25 26 27 28 0
3 -25 26 -27 -28 0
3 -25 -26 27 -28 0
3 -25 -26 -27 28 0
3 -25 -26 -27 -28 0
3 29 30 31 32 0
3 29 30 31 -32 0
3 29 30 -31 32 0
3 29 -30 31 32 0
3 29 -30 -31 -32 0
3 -29 30 31 32 0
3 -29 30 -31 -32 0
3 -29 -30 31 -32 0
3 -29 -30 -31 32 0
3 -29 -30 -31 -32 0
3 33 34 35 36 0
3 33 34 35 -36 0
3 33 34 -35 36 0
3 33 -34 35 36 0
3 33 -34 -35 -36 0
3 -33 34 35 36 0
3 -33 34 -35 -36 0
3 -33 -34 35 -36 0
3 -33 -34 -35 36 0
3 -33 -34 -35 -36 0
3 37 38 39 40 0
3 37 38 39 -40 0
3 37 38 -39 40 0
3 37 -38 39 40 0
3 37 -38 -39 -40 0
3 -37 38 39 40 0
3 -37 38 -39 -40 0
3 -37 -38 39 -40 0
3 -37 -38 -39 40 0
3 -37 -38 -39 -40 0
3 41 42 43 44 0
3 41 42 43 -44 0
3 41 42 -43 44 0
3 41 -42 43 44 0
3 41 -42 -43 -44 0
3 -41 42 43 44 0
3 -41 42 -43 -44 0
3 -41 -42 43 -44 0
3 -41 -42 -43 44 0
3 -41 -42 -43 -44 0
3 45 46 47 48 0
3 45 46 47 -48 0
3 45 46 -47 48 0
3 45 -46 47 48 0
3 45 -46 -47 -48 0
3 -45 46 47 48 0
3 -45 46 -47 -48 0
3 -45 -46 47 -48 0
3 -45 -46 -47 48 0
3 -45 -46 -47 -48 0
3 49 50 51 52 0
3 49 50 51 -52 0
3 49 50 -51 52 0
3 49 -50 51 52 0
3 49 -50 -51 -52 0
3 -49 50 51 52 0
3 -49 50 -51 -52 0
3 -49 -50 51 -52 0
3 -49 -50 -51 52 0
3 -49 -50 -51 -52 0
3 53 54 55 56 0
3 53 54 55 -56 0
3 53 54 -55 56 0
3 53 -54 55 56 0
3 53 -54 -55 -56 0
3 -53 54 55 56 0
3 -53 54 -55 -56 0
3 -53 -54 55 -56 0
3 -53 -54 -55 56 0
3 -53 -54 -55 -56 0
3 57 58 59 60 0
3 57 58 59 -60 0
3 57 58 -59 60 0
3 57 -58 59 60 0
3 57 -58 -59 -60 0
3 -57 58 59 60 0
3 -57 58 -59 -60 0
3 -57 -58 59 -60 0
3 -57 -58 -59 60 0
3 -57 -58 -59 -60 0
3 61 62 63 64 0
3 61 62 63 -64 0
3 61 62 -63 64 0
3 61 -62 63 64 0
3 61 -62 -63 -64 0
3 -61 62 63 64 0
3 -61 62 -63 -64 0
3 -61 -62 63 -64 0
3 -61 -62 -63 64 0
3 -61 -62 -63 -64 0
3 65 66 67 68 0
3 65 66 67 -68 0
3 65 66 -67 68 0
3 65 -66 67 68 0
3 65 -66 -67 -68 0
3 -65 66 67 68 0
3 -65 66 -67 -68 0
3 -65 -66 67 -68 0
3 -65 -66 -67 68 0
3 -65 -66 -67 -68 0
3 52 27 58 68 0
3 52 27 58 -68 0
3 52 27 -58 68 0
3 52 -27 58 68 0
3 52 -27 -58 -68 0
3 -52 27 58 68 0
3 -52 27 -58 -68 0
3 -52 -27 58 -68 0
3 -52 -27 -58 68 0
3 -52 -27 -58 -68 0
3 44 6 66 61 0
3 44 6 66 -61 0
3 44 6 -66 61 0
3 44 -6 66 61 0
3 44 -6 -66 -61 0
3 -44 6 66 61 0
3 -44 6 -66 -61 0
3 -44 -6 66 -61 0
3 -44 -6 -66 61 0
3 -44 -6 -66 -61 0
3 12 15 31 53 0
3 12 15 31 -53 0
3 12 15 -31 53 0
3 12 -15 31 53 0
3 12 -15 -31 -53 0
3 -12 15 31 53 0
3 -12 15 -31 -53 0
3 -12 -15 31 -53 0
3 -12 -15 -31 53 0
3 -12 -15 -31 -53 0
3 45 43 11 37 0
3 45 43 11 -37 0
3 45 43 -11 37 0
3 45 -43 11 37 0
3 45 -43 -11 -37 0
3 -45 43 11 37 0
3 -45 43 -11 -37 0
3 -45 -43 11 -37 0
3 -45 -43 -11 37 0
3 -45 -43 -11 -37 0
3 28 55 62 49 0
3 28 55 62 -49 0
3 28 55 -62 49 0
3 28 -55 62 49 0
3 28 -55 -62 -49 0
3 -28 55 62 49 0
3 -28 55 -62 -49 0
3 -28 -55 62 -49 0
3 -28 -55 -62 49 0
3 -28 -55 -62 -49 0
3 1 63 38 36 0
3 1 63 38 -36 0
3 1 63 -38 36 0
3 1 -63 38 36 0
3 1 -63 -38 -36 0
3 -1 63 38 36 0
3 -1 63 -38 -36 0
3 -1 -63 38 -36 0
3 -1 -63 -38 36 0
3 -1 -63 -38 -36 0
3 9 34 47 60 0
3 9 34 47 -60 0
3 9 34 -47 60 0
3 9 -34 47 60 0
3 9 -34 -47 -60 0
3 -9 34 47 60 0
3 -9 34 -47 -60 0
3 -9 -34 47 -60 0
3 -9 -34 -47 60 0
3 -9 -34 -47 -60 0
3 4 51 67 5 0
3 4 51 67 -5 0
3 4 51 -67 5 0
3 4 -51 67 5 0
3 4 -51 -67 -5 0
3 -4 51 67 5 0
3 -4 51 -67 -5 0
3 -4 -51 67 -5 0
3 -4 -51 -67 5 0
3 -4 -51 -67 -5 0
3 16 23 46 64 0
3 16 23 46 -64 0
3 16 23 -46 64 0
3 16 -23 46 64 0
3 16 -23 -46 -64 0
3 -16 23 46 64 0
3 -16 23 -46 -64 0
3 -16 -23 46 -64 0
3 -16 -23 -46 64 0
3 -16 -23 -46 -64 0
3 48 22 50 29 0
3 48 22 50 -29 0
3 48 22 -50 29 0
3 48 -22 50 29 0
3 48 -22 -50 -29 0
3 -48 22 50 29 0
3 -48 22 -50 -29 0
3 -48 -22 50 -29 0
3 -48 -22 -50 29 0
3 -48 -22 -50 -29 0
3 20 14 2 25 0
3 20 14 2 -25 0
3 20 14 -2 25 0
3 20 -14 2 25 0
3 20 -14 -2 -25 0
3 -20 14 2 25 0
3 -20 14 -2 -25 0
3 -20 -14 2 -25 0
3 -20 -14 -2 25 0
3 -20 -14 -2 -25 0
3 13 30 39 56 0
3 13 30 39 -56 0
3 13 30 -39 56 0
3 13 -30 39 56 0
3 13 -30 -39 -56 0
3 -13 30 39 56 0
3 -13 30 -39 -56 0
3 -13 -30 39 -56 0
3 -13 -30 -39 56 0
3 -13 -30 -39 -56 0
3 57 54 19 33 0
3 57 54 19 -33 0
3 57 54 -19 33 0
3 57 -54 19 33 0
3 57 -54 -19 -33 0
3 -57 54 19 33 0
3 -57 54 -19 -33 0
3 -57 -54 19 -33 0
3 -57 -54 -19 33 0
3 -57 -54 -19 -33 0
3 17 3 7 24 0
3 17 3 7 -24 0
3 17 3 -7 24 0
3 17 -3 7 24 0
3 17 -3 -7 -24 0
3 -17 3 7 24 0
3 -17 3 -7 -24 0
3 -17 -3 7 -24 0
3 -17 -3 -7 24 0
3 -17 -3 -7 -24 0
3 40 10 35 21 0
3 40 10 35 -21 0
3 40 10 -35 21 0
3 40 -10 35 21 0
3 40 -10 -35 -21 0
3 -40 10 35 21 0
3 -40 10 -35 -21 0
3 -40 -10 35 -21 0
3 -40 -10 -35 21 0
3 -40 -10 -35 -21 0
3 8 42 59 65 0
3 8 42 59 -65 0
3 8 42 -59 65 0
3 8 -42 59 65 0
3 8 -42 -59 -65 0
3 -8 42 59 65 0
3 -8 42 -59 -65 0
3 -8 -42 59 -65 0
3 -8 -42 -59 65 0
3 -8 -42 -59 -65 0
3 41 18 26 32 0
3 41 18 -26 -32 0
3 41 -18 26 -32 0
3 41 -18 -26 32 0
3 41 -18 -26 -32 0
3 -41 18 26 -32 0
3 -41 18 -26 32 0
3 -41 18 -26 -32 0
3 -41 -18 26 32 0
3 -41 -18 26 -32 0
3 -41 -18 -26 32 0
3 -41 -18 -26 -32 0
1 25 0
1 -4 0
1 -58 0
1 10 0
1 -6 0
1 -48 0
1 47 0
1 -51 0
1 49 0
1 -46 0
1 -29 0
1 19 0
1 38 0
1 -8 0
1 -30 0
1 31 0
1 -37 0
1 57 0
1 -21 0
1 7 0
1 12 0
1 -5 0
1 -9 0
1 -20 0
1 33 0
1 45 0
1 -11 0
1 55 0
1 -50 0
1 43 0
1 -16 0
1 -61 0
1 -27 0
1 -68 0
1 -66 0
1 26 0
1 -23 0
1 -14 0
1 24 0
1 15 0
1 -2 0
1 -52 0
1 62 0
1 13 0
1 28 0
1 18 0
1 54 0
1 44 0
1 -67 0
1 60 0
1 -64 0
1 -42 0
1 65 0
1 39 0
1 17 0
1 56 0
1 32 0
1 -22 0
1 -34 0
1 3 0
1 -1 0
1 53 0
1 40 0
1 35 0
1 41 0
1 59 0
1 -36 0
1 -63 0
