c target 18
p wcnf 40 242 4
3 1 2 3 4 0
3 1 2 3 -4 0
3 1 2 -3 4 0
3 1 -2 3 4 0
3 1 -2 -3 -4 0
3 -1 2 3 4 0
3 -1 2 -3 -4 0
3 -1 -2 3 -4 0
3 -1 -2 -3 4 0
3 -1 -2 -3 -4 0
3 5 6 7 8 0
3 5 6 7 -8 0
3 5 6 -7 8 0
3 5 -6 7 8 0
3 5 -6 -7 -8 0
3 -5 6 7 8 0
3 -5 6 -7 -8 0
3 -5 -6 7 -8 0
3 -5 -6 -7 8 0
3 -5 -6 -7 -8 0
3 9 10 11 12 0
3 9 10 11 -12 0
3 9 10 -11 12 0
3 9 -10 11 12 0
3 9 -10 -11 -12 0
3 -9 10 11 12 0
3 -9 10 -11 -12 0
3 -9 -10 11 -12 0
3 -9 -10 -11 12 0
3 -9 -10 -11 -12 0
3 13 14 15 16 0
3 13 14 15 -16 0
3 13 14 -15 16 0
3 13 -14 15 16 0
3 13 -14 -15 -16 0
3 -13 14 15 16 0
3 -13 14 -15 -16 0
3 -13 -14 15 -16 0
3 -13 -14 -15 16 0
3 -13 -14 -15 -16 0
3 17 18 19 20 0
3 17 18 19 -20 0
3 17 18 -19 20 0
3 17 -18 19 20 0
3 17 -18 -19 -20 0
3 -17 18 19 20 0
3 -17 18 -19 -20 0
3 -17 -18 19 -20 0
3 -17 -18 -19 20 0
3 -17 -18 -19 -20 0
3 21 22 23 24 0
3 21 22 23 -24 0
3 21 22 -23 24 0
3 21 -22 23 24 0
3 21 -22 -23 -24 0
3 -21 22 23 24 0
3 -21 22 -23 -24 0
3 -21 -22 23 -24 0
3 -21 -22 -23 24 0
3 -21 -22 -23 -24 0
3 25 26 27 28 0
3 25 26 27 -28 0
3 25 26 -27 28 0
3 25 -26 27 28 0
3 25 -26 -27 -28 0
3 -25 26 27 28 0
3 -25 26 -27 -28 0
3 -25 -26 27 -28 0
3 -25 -26 -27 28 0
3 -25 -26 -27 -28 0
3 29 30 31 32 0
3 29 30 31 -32 0
3 29 30 -31 32 0
3 29 -30 31 32 0
3 29 -30 -31 -32 0
3 -29 30 31 32 0
3 -29 30 -31 -32 0
3 -29 -30 31 -32 0
3 -29 -30 -31 32 0
3 -29 -30 -31 -32 0
3 33 34 35 36 0
3 33 34 35 -36 0
3 33 34 -35 36 0
3 33 -34 35 36 0
3 33 -34 -35 -36 0
3 -33 34 35 36 0
3 -33 34 -35 -36 0
3 -33 -34 35 -36 0
3 -33 -34 -35 36 0
3 -33 -34 -35 -36 0
3 37 38 39 40 0
3 37 38 39 -40 0
3 37 38 -39 40 0
3 37 -38 39 40 0
3 37 -38 -39 -40 0
3 -37 38 39 40 0
3 -37 38 -39 -40 0
3 -37 -38 39 -40 0
3 -37 -38 -39 40 0
3 -37 -38 -39 -40 0
3 40 34 31 4 0
3 40 34 31 -4 0
3 40 34 -31 4 0
3 40 -34 31 4 0
3 40 -34 -31 -4 0
3 -40 34 31 4 0
3 -40 34 -31 -4 0
3 -40 -34 31 -4 0
3 -40 -34 -31 4 0
3 -40 -34 -31 -4 0
3 5 10 39 29 0
3 5 10 39 -29 0
3 5 10 -39 29 0
3 5 -10 39 29 0
3 5 -10 -39 -29 0
3 -5 10 39 29 0
3 -5 10 -39 -29 0
3 -5 -10 39 -29 0
3 -5 -10 -39 29 0
3 -5 -10 -39 -29 0
3 24 2 30 28 0
3 24 2 30 -28 0
3 24 2 -30 28 0
3 24 -2 30 28 0
3 24 -2 -30 -28 0
3 -24 2 30 28 0
3 -24 2 -30 -28 0
3 -24 -2 30 -28 0
3 -24 -2 -30 28 0
3 -24 -2 -30 -28 0
3 8 38 35 32 0
3 8 38 35 -32 0
3 8 38 -35 32 0
3 8 -38 35 32 0
3 8 -38 -35 -32 0
3 -8 38 35 32 0
3 -8 38 -35 -32 0
3 -8 -38 35 -32 0
3 -8 -38 -35 32 0
3 -8 -38 -35 -32 0
3 13 19 6 9 0
3 13 19 6 -9 0
3 13 19 -6 9 0
3 13 -19 6 9 0
3 13 -19 -6 -9 0
3 -13 19 6 9 0
3 -13 19 -6 -9 0
3 -13 -19 6 -9 0
3 -13 -19 -6 9 0
3 -13 -19 -6 -9 0
3 12 22 3 33 0
3 12 22 3 -33 0
3 12 22 -3 33 0
3 12 -22 3 33 0
3 12 -22 -3 -33 0
3 -12 22 3 33 0
3 -12 22 -3 -33 0
3 -12 -22 3 -33 0
3 -12 -22 -3 33 0
3 -12 -22 -3 -33 0
3 36 7 15 17 0
3 36 7 15 -17 0
3 36 7 -15 17 0
3 36 -7 15 17 0
3 36 -7 -15 -17 0
3 -36 7 15 17 0
3 -36 7 -15 -17 0
3 -36 -7 15 -17 0
3 -36 -7 -15 17 0
3 -36 -7 -15 -17 0
3 25 11 23 16 0
3 25 11 23 -16 0
3 25 11 -23 16 0
3 25 -11 23 16 0
3 25 -11 -23 -16 0
3 -25 11 23 16 0
3 -25 11 -23 -16 0
3 -25 -11 23 -16 0
3 -25 -11 -23 16 0
3 -25 -11 -23 -16 0
3 20 27 14 37 0
3 20 27 14 -37 0
3 20 27 -14 37 0
3 20 -27 14 37 0
3 20 -27 -14 -37 0
3 -20 27 14 37 0
3 -20 27 -14 -37 0
3 -20 -27 14 -37 0
3 -20 -27 -14 37 0
3 -20 -27 -14 -37 0
3 21 26 18 1 0
3 21 26 -18 -1 0
3 21 -26 18 -1 0
3 21 -26 -18 1 0
3 21 -26 -18 -1 0
3 -21 26 18 -1 0
3 -21 26 -18 1 0
3 -21 26 -18 -1 0
3 -21 -26 18 1 0
3 -21 -26 18 -1 0
3 -21 -26 -18 1 0
3 -21 -26 -18 -1 0
1 26 0
1 39 0
1 -9 0
1 8 0
1 10 0
1 -14 0
1 38 0
1 24 0
1 -37 0
1 -19 0
1 -12 0
1 34 0
1 32 0
1 -22 0
1 -27 0
1 13 0
1 5 0
1 -3 0
1 -33 0
1 18 0
1 -21 0
1 -15 0
1 4 0
1 -25 0
1 -20 0
1 -23 0
1 -6 0
1 -7 0
1 2 0
1 -36 0
1 -1 0
1 30 0
1 -16 0
1 -31 0
1 29 0
1 11 0
1 35 0
1 40 0
1 -17 0
1 28 0
