c target 26
p wcnf 76 458 4
3 1 2 3 4 0
3 1 2 3 -4 0
3 1 2 -3 4 0
3 1 -2 3 4 0
3 1 -2 -3 -4 0
3 -1 2 3 4 0
3 -1 2 -3 -4 0
3 -1 -2 3 -4 0
3 -1 -2 -3 4 0
3 -1 -2 -3 -4 0
3 5 6 7 8 0
3 5 6 7 -8 0
3 5 6 -7 8 0
3 5 -6 7 8 0
3 5 -6 -7 -8 0
3 -5 6 7 8 0
3 -5 6 -7 -8 0
3 -5 -6 7 -8 0
3 -5 -6 -7 8 0
3 -5 -6 -7 -8 0
3 9 10 11 12 0
3 9 10 11 -12 0
3 9 10 -11 12 0
3 9 -10 11 12 0
3 9 -10 -11 -12 0
3 -9 10 11 12 0
3 -9 10 -11 -12 0
3 -9 -10 11 -12 0
3 -9 -10 -11 12 0
3 -9 -10 -11 -12 0
3 13 14 15 16 0
3 13 14 15 -16 0
3 13 14 -15 16 0
3 13 -14 15 16 0
3 13 -14 -15 -16 0
3 -13 14 15 16 0
3 -13 14 -15 -16 0
3 -13 -14 15 -16 0
3 -13 -14 -15 16 0
3 -13 -14 -15 -16 0
3 17 18 19 20 0
3 17 18 19 -20 0
3 17 18 -19 20 0
3 17 -18 19 20 0
3 17 -18 -19 -20 0
3 -17 18 19 20 0
3 -17 18 -19 -20 0
3 -17 -18 19 -20 0
3 -17 -18 -19 20 0
3 -17 -18 -19 -20 0
3 21 22 23 24 0
3 21 22 23 -24 0
3 21 22 -23 24 0
3 21 -22 23 24 0
3 21 -22 -23 -24 0
3 -21 22 23 24 0
3 -21 22 -23 -24 0
3 -21 -22 23 -24 0
3 -21 -22 -23 24 0
3 -21 -22 -23 -24 0
3 25 26 27 28 0
3 25 26 27 -28 0
3 25 26 -27 28 0
3 25 -26 27 28 0
3 25 -26 -27 -28 0
3 -25 26 27 28 0
3 -25 26 -27 -28 0
3 -25 -26 27 -28 0
3 -25 -26 -27 28 0
3 -25 -26 -27 -28 0
3 29 30 31 32 0
3 29 30 31 -32 0
3 29 30 -31 32 0
3 29 -30 31 32 0
3 29 -30 -31 -32 0
3 -29 30 31 32 0
3 -29 30 -31 -32 0
3 -29 -30 31 -32 0
3 -29 -30 -31 32 0
3 -29 -30 -31 -32 0
3 33 34 35 36 0
3 33 34 35 -36 0
3 33 34 -35 36 0
3 33 -34 35 36 0
3 33 -34 -35 -36 0
3 -33 34 35 36 0
3 -33 34 -35 -36 0
3 -33 -34 35 -36 0
3 -33 -34 -35 36 0
3 -33 -34 -35 -36 0
3 37 38 39 40 0
3 37 38 39 -40 0
3 37 38 -39 40 0
3 37 -38 39 40 0
3 37 -38 -39 -40 0
3 -37 38 39 40 0
3 -37 38 -39 -40 0
3 -37 -38 39 -40 0
3 -37 -38 -39 40 0
3 -37 -38 -39 -40 0
3 41 42 43 44 0
3 41 42 43 -44 0
3 41 42 -43 44 0
3 41 -42 43 44 0
3 41 -42 -43 -44 0
3 -41 42 43 44 0
3 -41 42 -43 -44 0
3 -41 -42 43 -44 0
3 -41 -42 -43 44 0
3 -41 -42 -43 -44 0
3 45 46 47 48 0
3 45 46 47 -48 0
3 45 46 -47 48 0
3 45 -46 47 48 0
3 45 -46 -47 -48 0
3 -45 46 47 48 0
3 -45 46 -47 -48 0
3 -45 -46 47 -48 0
3 -45 -46 -47 48 0
3 -45 -46 -47 -48 0
3 49 50 51 52 0
3 49 50 51 -52 0
3 49 50 -51 52 0
3 49 -50 51 52 0
3 49 -50 -51 -52 0
3 -49 50 51 52 0
3 -49 50 -51 -52 0
3 -49 -50 51 -52 0
3 -49 -50 -51 52 0
3 -49 -50 -51 -52 0
3 53 54 55 56 0
3 53 54 55 -56 0
3 53 54 -55 56 0
3 53 -54 55 56 0
3 53 -54 -55 -56 0
3 -53 54 55 56 0
3 -53 54 -55 -56 0
3 -53 -54 55 -56 0
3 -53 -54 -55 56 0
3 -53 -54 -55 -56 0
3 57 58 59 60 0
3 57 58 59 -60 0
3 57 58 -59 60 0
3 57 -58 59 60 0
3 57 -58 -59 -60 0
3 -57 58 59 60 0
3 -57 58 -59 -60 0
3 -57 -58 59 -60 0
3 -57 -58 -59 60 0
3 -57 -58 -59 -60 0
3 61 62 63 64 0
3 61 62 63 -64 0
3 61 62 -63 64 0
3 61 -62 63 64 0
3 61 -62 -63 -64 0
3 -61 62 63 64 0
3 -61 62 -63 -64 0
3 -61 -62 63 -64 0
3 -61 -62 -63 64 0
3 -61 -62 -63 -64 0
3 65 66 67 68 0
3 65 66 67 -68 0
3 65 66 -67 68 0
3 65 -66 67 68 0
3 65 -66 -67 -68 0
3 -65 66 67 68 0
3 -65 66 -67 -68 0
3 -65 -66 67 -68 0
3 -65 -66 -67 68 0
3 -65 -66 -67 -68 0
3 69 70 71 72 0
3 69 70 71 -72 0
3 69 70 -71 72 0
3 69 -70 71 72 0
3 69 -70 -71 -72 0
3 -69 70 71 72 0
3 -69 70 -71 -72 0
3 -69 -70 71 -72 0
3 -69 -70 -71 72 0
3 -69 -70 -71 -72 0
3 73 74 75 76 0
3 73 74 75 -76 0
3 73 74 -75 76 0
3 73 -74 75 76 0
3 73 -74 -75 -76 0
3 -73 74 75 76 0
3 -73 74 -75 -76 0
3 -73 -74 75 -76 0
3 -73 -74 -75 76 0
3 -73 -74 -75 -76 0
3 17 46 42 76 0
3 17 46 42 -76 0
3 17 46 -42 76 0
3 17 -46 42 76 0
3 17 -46 -42 -76 0
3 -17 46 42 76 0
3 -17 46 -42 -76 0
3 -17 -46 42 -76 0
3 -17 -46 -42 76 0
3 -17 -46 -42 -76 0
3 64 71 50 45 0
3 64 71 50 -45 0
3 64 71 -50 45 0
3 64 -71 50 45 0
3 64 -71 -50 -45 0
3 -64 71 50 45 0
3 -64 71 -50 -45 0
3 -64 -71 50 -45 0
3 -64 -71 -50 45 0
3 -64 -71 -50 -45 0
3 4 10 66 73 0
3 4 10 66 -73 0
3 4 10 -66 73 0
3 4 -10 66 73 0
3 4 -10 -66 -73 0
3 -4 10 66 73 0
3 -4 10 -66 -73 0
3 -4 -10 66 -73 0
3 -4 -10 -66 73 0
3 -4 -10 -66 -73 0
3 5 67 54 9 0
3 5 67 54 -9 0
3 5 67 -54 9 0
3 5 -67 54 9 0
3 5 -67 -54 -9 0
3 -5 67 54 9 0
3 -5 67 -54 -9 0
3 -5 -67 54 -9 0
3 -5 -67 -54 9 0
3 -5 -67 -54 -9 0
3 69 2 43 60 0
3 69 2 43 -60 0
3 69 2 -43 60 0
3 69 -2 43 60 0
3 69 -2 -43 -60 0
3 -69 2 43 60 0
3 -69 2 -43 -60 0
3 -69 -2 43 -60 0
3 -69 -2 -43 60 0
3 -69 -2 -43 -60 0
3 36 23 31 53 0
3 36 23 31 -53 0
3 36 23 -31 53 0
3 36 -23 31 53 0
3 36 -23 -31 -53 0
3 -36 23 31 53 0
3 -36 23 -31 -53 0
3 -36 -23 31 -53 0
3 -36 -23 -31 53 0
3 -36 -23 -31 -53 0
3 24 15 39 12 0
3 24 15 39 -12 0
3 24 15 -39 12 0
3 24 -15 39 12 0
3 24 -15 -39 -12 0
3 -24 15 39 12 0
3 -24 15 -39 -12 0
3 -24 -15 39 -12 0
3 -24 -15 -39 12 0
3 -24 -15 -39 -12 0
3 61 74 35 8 0
3 61 74 35 -8 0
3 61 74 -35 8 0
3 61 -74 35 8 0
3 61 -74 -35 -8 0
3 -61 74 35 8 0
3 -61 74 -35 -8 0
3 -61 -74 35 -8 0
3 -61 -74 -35 8 0
3 -61 -74 -35 -8 0
3 32 47 63 40 0
3 32 47 63 -40 0
3 32 47 -63 40 0
3 32 -47 63 40 0
3 32 -47 -63 -40 0
3 -32 47 63 40 0
3 -32 47 -63 -40 0
3 -32 -47 63 -40 0
3 -32 -47 -63 40 0
3 -32 -47 -63 -40 0
3 68 7 38 44 0
3 68 7 38 -44 0
3 68 7 -38 44 0
3 68 -7 38 44 0
3 68 -7 -38 -44 0
3 -68 7 38 44 0
3 -68 7 -38 -44 0
3 -68 -7 38 -44 0
3 -68 -7 -38 44 0
3 -68 -7 -38 -44 0
3 25 14 70 57 0
3 25 14 70 -57 0
3 25 14 -70 57 0
3 25 -14 70 57 0
3 25 -14 -70 -57 0
3 -25 14 70 57 0
3 -25 14 -70 -57 0
3 -25 -14 70 -57 0
3 -25 -14 -70 57 0
3 -25 -14 -70 -57 0
3 29 75 55 33 0
3 29 75 55 -33 0
3 29 75 -55 33 0
3 29 -75 55 33 0
3 29 -75 -55 -33 0
3 -29 75 55 33 0
3 -29 75 -55 -33 0
3 -29 -75 55 -33 0
3 -29 -75 -55 33 0
3 -29 -75 -55 -33 0
3 52 62 59 21 0
3 52 62 59 -21 0
3 52 62 -59 21 0
3 52 -62 59 21 0
3 52 -62 -59 -21 0
3 -52 62 59 21 0
3 -52 62 -59 -21 0
3 -52 -62 59 -21 0
3 -52 -62 -59 21 0
3 -52 -62 -59 -21 0
3 13 27 19 37 0
3 13 27 19 -37 0
3 13 27 -19 37 0
3 13 -27 19 37 0
3 13 -27 -19 -37 0
3 -13 27 19 37 0
3 -13 27 -19 -37 0
3 -13 -27 19 -37 0
3 -13 -27 -19 37 0
3 -13 -27 -19 -37 0
3 65 58 6 49 0
3 65 58 6 -49 0
3 65 58 -6 49 0
3 65 -58 6 49 0
3 65 -58 -6 -49 0
3 -65 58 6 49 0
3 -65 58 -6 -49 0
3 -65 -58 6 -49 0
3 -65 -58 -6 49 0
3 -65 -58 -6 -49 0
3 28 11 3 72 0
3 28 11 3 -72 0
3 28 11 -3 72 0
3 28 -11 3 72 0
3 28 -11 -3 -72 0
3 -28 11 3 72 0
3 -28 11 -3 -72 0
3 -28 -11 3 -72 0
3 -28 -11 -3 72 0
3 -28 -11 -3 -72 0
3 48 18 51 16 0
3 48 18 51 -16 0
3 48 18 -51 16 0
3 48 -18 51 16 0
3 48 -18 -51 -16 0
3 -48 18 51 16 0
3 -48 18 -51 -16 0
3 -48 -18 51 -16 0
3 -48 -18 -51 16 0
3 -48 -18 -51 -16 0
3 1 34 30 41 0
3 1 34 30 -41 0
3 1 34 -30 41 0
3 1 -34 30 41 0
3 1 -34 -30 -41 0
3 -1 34 30 41 0
3 -1 34 -30 -41 0
3 -1 -34 30 -41 0
3 -1 -34 -30 41 0
3 -1 -34 -30 -41 0
3 20 22 26 56 0
3 20 22 -26 -56 0
3 20 -22 26 -56 0
3 20 -22 -26 56 0
3 20 -22 -26 -56 0
3 -20 22 26 -56 0
3 -20 22 -26 56 0
3 -20 22 -26 -56 0
3 -20 -22 26 56 0
3 -20 -22 26 -56 0
3 -20 -22 -26 56 0
3 -20 -22 -26 -56 0
1 73 0
1 59 0
1 -67 0
1 -28 0
1 -50 0
1 -39 0
1 -7 0
1 -70 0
1 -37 0
1 76 0
1 60 0
1 20 0
1 75 0
1 -4 0
1 14 0
1 27 0
1 71 0
1 -25 0
1 42 0
1 -66 0
1 -63 0
1 19 0
1 -36 0
1 -22 0
1 -2 0
1 -24 0
1 -64 0
1 -21 0
1 43 0
1 33 0
1 -18 0
1 -45 0
1 6 0
1 31 0
1 -68 0
1 56 0
1 47 0
1 -62 0
1 41 0
1 57 0
1 -53 0
1 23 0
1 40 0
1 34 0
1 51 0
1 15 0
1 44 0
1 8 0
1 -11 0
1 -61 0
1 -46 0
1 -1 0
1 30 0
1 13 0
1 17 0
1 -29 0
1 16 0
1 -5 0
1 35 0
1 -12 0
1 -9 0
1 -49 0
1 -38 0
1 -55 0
1 -72 0
1 -3 0
1 58 0
1 -65 0
1 -32 0
1 -48 0
1 -10 0
1 -52 0
1 26 0
1 -69 0
1 -74 0
1 -54 0
