c target 14
p wcnf 32 194 4
3 1 2 3 4 0
3 1 2 3 -4 0
3 1 2 -3 4 0
3 1 -2 3 4 0
3 1 -2 -3 -4 0
3 -1 2 3 4 0
3 -1 2 -3 -4 0
3 -1 -2 3 -4 0
3 -1 -2 -3 4 0
3 -1 -2 -3 -4 0
3 5 6 7 8 0
3 5 6 7 -8 0
3 5 6 -7 8 0
3 5 -6 7 8 0
3 5 -6 -7 -8 0
3 -5 6 7 8 0
3 -5 6 -7 -8 0
3 -5 -6 7 -8 0
3 -5 -6 -7 8 0
3 -5 -6 -7 -8 0
3 9 10 11 12 0
3 9 10 11 -12 0
3 9 10 -11 12 0
3 9 -10 11 12 0
3 9 -10 -11 -12 0
3 -9 10 11 12 0
3 -9 10 -11 -12 0
3 -9 -10 11 -12 0
3 -9 -10 -11 12 0
3 -9 -10 -11 -12 0
3 13 14 15 16 0
3 13 14 15 -16 0
3 13 14 -15 16 0
3 13 -14 15 16 0
3 13 -14 -15 -16 0
3 -13 14 15 16 0
3 -13 14 -15 -16 0
3 -13 -14 15 -16 0
3 -13 -14 -15 16 0
3 -13 -14 -15 -16 0
3 17 18 19 20 0
3 17 18 19 -20 0
3 17 18 -19 20 0
3 17 -18 19 20 0
3 17 -18 -19 -20 0
3 -17 18 19 20 0
3 -17 18 -19 -20 0
3 -17 -18 19 -20 0
3 -17 -18 -19 20 0
3 -17 -18 -19 -20 0
3 21 22 23 24 0
3 21 22 23 -24 0
3 21 22 -23 24 0
3 21 -22 23 24 0
3 21 -22 -23 -24 0
3 -21 22 23 24 0
3 -21 22 -23 -24 0
3 -21 -22 23 -24 0
3 -21 -22 -23 24 0
3 -21 -22 -23 -24 0
3 25 26 27 28 0
3 25 26 27 -28 0
3 25 26 -27 28 0
3 25 -26 27 28 0
3 25 -26 -27 -28 0
3 -25 26 27 28 0
3 -25 26 -27 -28 0
3 -25 -26 27 -28 0
3 -25 -26 -27 28 0
3 -25 -26 -27 -28 0
3 29 30 31 32 0
3 29 30 31 -32 0
3 29 30 -31 32 0
3 29 -30 31 32 0
3 29 -30 -31 -32 0
3 -29 30 31 32 0
3 -29 30 -31 -32 0
3 -29 -30 31 -32 0
3 -29 -30 -31 32 0
3 -29 -30 -31 -32 0
3 13 26 2 32 0
3 13 26 2 -32 0
3 13 26 -2 32 0
3 13 -26 2 32 0
3 13 -26 -2 -32 0
3 -13 26 2 32 0
3 -13 26 -2 -32 0
3 -13 -26 2 -32 0
3 -13 -26 -2 32 0
3 -13 -26 -2 -32 0
3 12 30 19 8 0
3 12 30 19 -8 0
3 12 30 -19 8 0
3 12 -30 19 8 0
3 12 -30 -19 -8 0
3 -12 30 19 8 0
3 -12 30 -19 -8 0
3 -12 -30 19 -8 0
3 -12 -30 -19 8 0
3 -12 -30 -19 -8 0
3 24 14 11 29 0
3 24 14 11 -29 0
3 24 14 -11 29 0
3 24 -14 11 29 0
3 24 -14 -11 -29 0
3 -24 14 11 29 0
3 -24 14 -11 -29 0
3 -24 -14 11 -29 0
3 -24 -14 -11 29 0
3 -24 -14 -11 -29 0
3 20 10 3 21 0
3 20 10 3 -21 0
3 20 10 -3 21 0
3 20 -10 3 21 0
3 20 -10 -3 -21 0
3 -20 10 3 21 0
3 -20 10 -3 -21 0
3 -20 -10 3 -21 0
3 -20 -10 -3 21 0
3 -20 -10 -3 -21 0
3 17 22 27 5 0
3 17 22 27 -5 0
3 17 22 -27 5 0
3 17 -22 27 5 0
3 17 -22 -27 -5 0
3 -17 22 27 5 0
3 -17 22 -27 -5 0
3 -17 -22 27 -5 0
3 -17 -22 -27 5 0
3 -17 -22 -27 -5 0
3 1 18 6 9 0
3 1 18 6 -9 0
3 1 18 -6 9 0
3 1 -18 6 9 0
3 1 -18 -6 -9 0
3 -1 18 6 9 0
3 -1 18 -6 -9 0
3 -1 -18 6 -9 0
3 -1 -18 -6 9 0
3 -1 -18 -6 -9 0
3 16 7 23 28 0
3 16 7 23 -28 0
3 16 7 -23 28 0
3 16 -7 23 28 0
3 16 -7 -23 -28 0
3 -16 7 23 28 0
3 -16 7 -23 -28 0
3 -16 -7 23 -28 0
3 -16 -7 -23 28 0
3 -16 -7 -23 -28 0
3 25 31 15 4 0
3 25 31 -15 -4 0
3 25 -31 15 -4 0
3 25 -31 -15 4 0
3 25 -31 -15 -4 0
3 -25 31 15 -4 0
3 -25 31 -15 4 0
3 -25 31 -15 -4 0
3 -25 -31 15 4 0
3 -25 -31 15 -4 0
3 -25 -31 -15 4 0
3 -25 -31 -15 -4 0
1 8 0
1 12 0
1 -4 0
1 -18 0
1 14 0
1 -29 0
1 -20 0
1 -21 0
1 -26 0
1 31 0
1 7 0
1 -22 0
1 -17 0
1 -5 0
1 -1 0
1 -13 0
1 23 0
1 11 0
1 -3 0
1 27 0
1 24 0
1 32 0
1 16 0
1 -6 0
1 -2 0
1 25 0
1 -9 0
1 -10 0
1 30 0
1 15 0
1 -28 0
1 19 0
