c target 23
p wcnf 60 362 4
3 1 2 3 4 0
3 1 2 3 -4 0
3 1 2 -3 4 0
3 1 -2 3 4 0
3 1 -2 -3 -4 0
3 -1 2 3 4 0
3 -1 2 -3 -4 0
3 -1 -2 3 -4 0
3 -1 -2 -3 4 0
3 -1 -2 -3 -4 0
3 5 6 7 8 0
3 5 6 7 -8 0
3 5 6 -7 8 0
3 5 -6 7 8 0
3 5 -6 -7 -8 0
3 -5 6 7 8 0
3 -5 6 -7 -8 0
3 -5 -6 7 -8 0
3 -5 -6 -7 8 0
3 -5 -6 -7 -8 0
3 9 10 11 12 0
3 9 10 11 -12 0
3 9 10 -11 12 0
3 9 -10 11 12 0
3 9 -10 -11 -12 0
3 -9 10 11 12 0
3 -9 10 -11 -12 0
3 -9 -10 11 -12 0
3 -9 -10 -11 12 0
3 -9 -10 -11 -12 0
3 13 14 15 16 0
3 13 14 15 -16 0
3 13 14 -15 16 0
3 13 -14 15 16 0
3 13 -14 -15 -16 0
3 -13 14 15 16 0
3 -13 14 -15 -16 0
3 -13 -14 15 -16 0
3 -13 -14 -15 16 0
3 -13 -14 -15 -16 0
3 17 18 19 20 0
3 17 18 19 -20 0
3 17 18 -19 20 0
3 17 -18 19 20 0
3 17 -18 -19 -20 0
3 -17 18 19 20 0
3 -17 18 -19 -20 0
3 -17 -18 19 -20 0
3 -17 -18 -19 20 0
3 -17 -18 -19 -20 0
3 21 22 23 24 0
3 21 22 23 -24 0
3 21 22 -23 24 0
3 21 -22 23 24 0
3 21 -22 -23 -24 0
3 -21 22 23 24 0
3 -21 22 -23 -24 0
3 -21 -22 23 -24 0
3 -21 -22 -23 24 0
3 -21 -22 -23 -24 0
3 25 26 27 28 0
3 25 26 27 -28 0
3 25 26 -27 28 0
3 25 -26 27 28 0
3 25 -26 -27 -28 0
3 -25 26 27 28 0
3 -25 26 -27 -28 0
3 -25 -26 27 -28 0
3 -25 -26 -27 28 0
3 -25 -26 -27 -28 0
3 29 30 31 32 0
3 29 30 31 -32 0
3 29 30 -31 32 0
3 29 -30 31 32 0
3 29 -30 -31 -32 0
3 -29 30 31 32 0
3 -29 30 -31 -32 0
3 -29 -30 31 -32 0
3 -29 -30 -31 32 0
3 -29 -30 -31 -32 0
3 33 34 35 36 0
3 33 34 35 -36 0
3 33 34 -35 36 0
3 33 -34 35 36 0
3 33 -34 -35 -36 0
3 -33 34 35 36 0
3 -33 34 -35 -36 0
3 -33 -34 35 -36 0
3 -33 -34 -35 36 0
3 -33 -34 -35 -36 0
3 37 38 39 40 0
3 37 38 39 -40 0
3 37 38 -39 40 0
3 37 -38 39 40 0
3 37 -38 -39 -40 0
3 -37 38 39 40 0
3 -37 38 -39 -40 0
3 -37 -38 39 -40 0
3 -37 -38 -39 40 0
3 -37 -38 -39 -40 0
3 41 42 43 44 0
3 41 42 43 -44 0
3 41 42 -43 44 0
3 41 -42 43 44 0
3 41 -42 -43 -44 0
3 -41 42 43 44 0
3 -41 42 -43 -44 0
3 -41 -42 43 -44 0
3 -41 -42 -43 44 0
3 -41 -42 -43 -44 0
3 45 46 47 48 0
3 45 46 47 -48 0
3 45 46 -47 48 0
3 45 -46 47 48 0
3 45 -46 -47 -48 0
3 -45 46 47 48 0
3 -45 46 -47 -48 0
3 -45 -46 47 -48 0
3 -45 -46 -47 48 0
3 -45 -46 -47 -48 0
3 49 50 51 52 0
3 49 50 51 -52 0
3 49 50 -51 52 0
3 49 -50 51 52 0
3 49 -50 -51 -52 0
3 -49 50 51 52 0
3 -49 50 -51 -52 0
3 -49 -50 51 -52 0
3 -49 -50 -51 52 0
3 -49 -50 -51 -52 0
3 53 54 55 56 0
3 53 54 55 -56 0
3 53 54 -55 56 0
3 53 -54 55 56 0
3 53 -54 -55 -56 0
3 -53 54 55 56 0
3 -53 54 -55 -56 0
3 -53 -54 55 -56 0
3 -53 -54 -55 56 0
3 -53 -54 -55 -56 0
3 57 58 59 60 0
3 57 58 59 -60 0
3 57 58 -59 60 0
3 57 -58 59 60 0
3 57 -58 -59 -60 0
3 -57 58 59 60 0
3 -57 58 -59 -60 0
3 -57 -58 59 -60 0
3 -57 -58 -59 60 0
3 -57 -58 -59 -60 0
3 4 6 35 49 0
3 4 6 35 -49 0
3 4 6 -35 49 0
3 4 -6 35 49 0
3 4 -6 -35 -49 0
3 -4 6 35 49 0
3 -4 6 -35 -49 0
3 -4 -6 35 -49 0
3 -4 -6 -35 49 0
3 -4 -6 -35 -49 0
3 52 10 47 13 0
3 52 10 47 -13 0
3 52 10 -47 13 0
3 52 -10 47 13 0
3 52 -10 -47 -13 0
3 -52 10 47 13 0
3 -52 10 -47 -13 0
3 -52 -10 47 -13 0
3 -52 -10 -47 13 0
3 -52 -10 -47 -13 0
3 32 7 22 37 0
3 32 7 22 -37 0
3 32 7 -22 37 0
3 32 -7 22 37 0
3 32 -7 -22 -37 0
3 -32 7 22 37 0
3 -32 7 -22 -37 0
3 -32 -7 22 -37 0
3 -32 -7 -22 37 0
3 -32 -7 -22 -37 0
3 48 23 27 9 0
3 48 23 27 -9 0
3 48 23 -27 9 0
3 48 -23 27 9 0
3 48 -23 -27 -9 0
3 -48 23 27 9 0
3 -48 23 -27 -9 0
3 -48 -23 27 -9 0
3 -48 -23 -27 9 0
3 -48 -23 -27 -9 0
3 44 15 2 8 0
3 44 15 2 -8 0
3 44 15 -2 8 0
3 44 -15 2 8 0
3 44 -15 -2 -8 0
3 -44 15 2 8 0
3 -44 15 -2 -8 0
3 -44 -15 2 -8 0
3 -44 -15 -2 8 0
3 -44 -15 -2 -8 0
3 12 43 54 25 0
3 12 43 54 -25 0
3 12 43 -54 25 0
3 12 -43 54 25 0
3 12 -43 -54 -25 0
3 -12 43 54 25 0
3 -12 43 -54 -25 0
3 -12 -43 54 -25 0
3 -12 -43 -54 25 0
3 -12 -43 -54 -25 0
3 29 19 59 40 0
3 29 19 59 -40 0
3 29 19 -59 40 0
3 29 -19 59 40 0
3 29 -19 -59 -40 0
3 -29 19 59 40 0
3 -29 19 -59 -40 0
3 -29 -19 59 -40 0
3 -29 -19 -59 40 0
3 -29 -19 -59 -40 0
3 41 55 50 33 0
3 41 55 50 -33 0
3 41 55 -50 33 0
3 41 -55 50 33 0
3 41 -55 -50 -33 0
3 -41 55 50 33 0
3 -41 55 -50 -33 0
3 -41 -55 50 -33 0
3 -41 -55 -50 33 0
3 -41 -55 -50 -33 0
3 28 18 3 16 0
3 28 18 3 -16 0
3 28 18 -3 16 0
3 28 -18 3 16 0
3 28 -18 -3 -16 0
3 -28 18 3 16 0
3 -28 18 -3 -16 0
3 -28 -18 3 -16 0
3 -28 -18 -3 16 0
3 -28 -18 -3 -16 0
3 60 42 51 36 0
3 60 42 51 -36 0
3 60 42 -51 36 0
3 60 -42 51 36 0
3 60 -42 -51 -36 0
3 -60 42 51 36 0
3 -60 42 -51 -36 0
3 -60 -42 51 -36 0
3 -60 -42 -51 36 0
3 -60 -42 -51 -36 0
3 24 34 31 57 0
3 24 34 31 -57 0
3 24 34 -31 57 0
3 24 -34 31 57 0
3 24 -34 -31 -57 0
3 -24 34 31 57 0
3 -24 34 -31 -57 0
3 -24 -34 31 -57 0
3 -24 -34 -31 57 0
3 -24 -34 -31 -57 0
3 17 30 26 56 0
3 17 30 26 -56 0
3 17 30 -26 56 0
3 17 -30 26 56 0
3 17 -30 -26 -56 0
3 -17 30 26 56 0
3 -17 30 -26 -56 0
3 -17 -30 26 -56 0
3 -17 -30 -26 56 0
3 -17 -30 -26 -56 0
3 21 38 46 1 0
3 21 38 46 -1 0
3 21 38 -46 1 0
3 21 -38 46 1 0
3 21 -38 -46 -1 0
3 -21 38 46 1 0
3 -21 38 -46 -1 0
3 -21 -38 46 -1 0
3 -21 -38 -46 1 0
3 -21 -38 -46 -1 0
3 45 11 39 53 0
3 45 11 39 -53 0
3 45 11 -39 53 0
3 45 -11 39 53 0
3 45 -11 -39 -53 0
3 -45 11 39 53 0
3 -45 11 -39 -53 0
3 -45 -11 39 -53 0
3 -45 -11 -39 53 0
3 -45 -11 -39 -53 0
3 5 14 58 20 0
3 5 14 -58 -20 0
3 5 -14 58 -20 0
3 5 -14 -58 20 0
3 5 -14 -58 -20 0
3 -5 14 58 -20 0
3 -5 14 -58 20 0
3 -5 14 -58 -20 0
3 -5 -14 58 20 0
3 -5 -14 58 -20 0
3 -5 -14 -58 20 0
3 -5 -14 -58 -20 0
1 -40 0
1 -32 0
1 -44 0
1 -13 0
1 48 0
1 20 0
1 -60 0
1 -34 0
1 57 0
1 -43 0
1 -39 0
1 -52 0
1 -38 0
1 -10 0
1 24 0
1 -27 0
1 -59 0
1 -37 0
1 -45 0
1 54 0
1 -8 0
1 35 0
1 -42 0
1 -9 0
1 -33 0
1 14 0
1 -7 0
1 -53 0
1 36 0
1 1 0
1 -46 0
1 18 0
1 58 0
1 56 0
1 31 0
1 17 0
1 -47 0
1 -50 0
1 -19 0
1 -41 0
1 -30 0
1 12 0
1 -29 0
1 -55 0
1 -22 0
1 28 0
1 -3 0
1 25 0
1 -16 0
1 2 0
1 6 0
1 -23 0
1 -51 0
1 -21 0
1 -11 0
1 -5 0
1 4 0
1 26 0
1 -15 0
1 49 0
