c target 15
p wcnf 36 218 4
3 1 2 3 4 0
3 1 2 3 -4 0
3 1 2 -3 4 0
3 1 -2 3 4 0
3 1 -2 -3 -4 0
3 -1 2 3 4 0
3 -1 2 -3 -4 0
3 -1 -2 3 -4 0
3 -1 -2 -3 4 0
3 -1 -2 -3 -4 0
3 5 6 7 8 0
3 5 6 7 -8 0
3 5 6 -7 8 0
3 5 -6 7 8 0
3 5 -6 -7 -8 0
3 -5 6 7 8 0
3 -5 6 -7 -8 0
3 -5 -6 7 -8 0
3 -5 -6 -7 8 0
3 -5 -6 -7 -8 0
3 9 10 11 12 0
3 9 10 11 -12 0
3 9 10 -11 12 0
3 9 -10 11 12 0
3 9 -10 -11 -12 0
3 -9 10 11 12 0
3 -9 10 -11 -12 0
3 -9 -10 11 -12 0
3 -9 -10 -11 12 0
3 -9 -10 -11 -12 0
3 13 14 15 16 0
3 13 14 15 -16 0
3 13 14 -15 16 0
3 13 -14 15 16 0
3 13 -14 -15 -16 0
3 -13 14 15 16 0
3 -13 14 -15 -16 0
3 -13 -14 15 -16 0
3 -13 -14 -15 16 0
3 -13 -14 -15 -16 0
3 17 18 19 20 0
3 17 18 19 -20 0
3 17 18 -19 20 0
3 17 -18 19 20 0
3 17 -18 -19 -20 0
3 -17 18 19 20 0
3 -17 18 -19 -20 0
3 -17 -18 19 -20 0
3 -17 -18 -19 20 0
3 -17 -18 -19 -20 0
3 21 22 23 24 0
3 21 22 23 -24 0
3 21 22 -23 24 0
3 21 -22 23 24 0
3 21 -22 -23 -24 0
3 -21 22 23 24 0
3 -21 22 -23 -24 0
3 -21 -22 23 -24 0
3 -21 -22 -23 24 0
3 -21 -22 -23 -24 0
3 25 26 27 28 0
3 25 26 27 -28 0
3 25 26 -27 28 0
3 25 -26 27 28 0
3 25 -26 -27 -28 0
3 -25 26 27 28 0
3 -25 26 -27 -28 0
3 -25 -26 27 -28 0
3 -25 -26 -27 28 0
3 -25 -26 -27 -28 0
3 29 30 31 32 0
3 29 30 31 -32 0
3 29 30 -31 32 0
3 29 -30 31 32 0
3 29 -30 -31 -32 0
3 -29 30 31 32 0
3 -29 30 -31 -32 0
3 -29 -30 31 -32 0
3 -29 -30 -31 32 0
3 -29 -30 -31 -32 0
3 33 34 35 36 0
3 33 34 35 -36 0
3 33 34 -35 36 0
3 33 -34 35 36 0
3 33 -34 -35 -36 0
3 -33 34 35 36 0
3 -33 34 -35 -36 0
3 -33 -34 35 -36 0
3 -33 -34 -35 36 0
3 -33 -34 -35 -36 0
3 5 30 26 21 0
3 5 30 26 -21 0
3 5 30 -26 21 0
3 5 -30 26 21 0
3 5 -30 -26 -21 0
3 -5 30 26 21 0
3 -5 30 -26 -21 0
3 -5 -30 26 -21 0
3 -5 -30 -26 21 0
3 -5 -30 -26 -21 0
3 29 2 18 24 0
3 29 2 18 -24 0
3 29 2 -18 24 0
3 29 -2 18 24 0
3 29 -2 -18 -24 0
3 -29 2 18 24 0
3 -29 2 -18 -24 0
3 -29 -2 18 -24 0
3 -29 -2 -18 24 0
3 -29 -2 -18 -24 0
3 1 19 15 13 0
3 1 19 15 -13 0
3 1 19 -15 13 0
3 1 -19 15 13 0
3 1 -19 -15 -13 0
3 -1 19 15 13 0
3 -1 19 -15 -13 0
3 -1 -19 15 -13 0
3 -1 -19 -15 13 0
3 -1 -19 -15 -13 0
3 8 34 14 9 0
3 8 34 14 -9 0
3 8 34 -14 9 0
3 8 -34 14 9 0
3 8 -34 -14 -9 0
3 -8 34 14 9 0
3 -8 34 -14 -9 0
3 -8 -34 14 -9 0
3 -8 -34 -14 9 0
3 -8 -34 -14 -9 0
3 17 10 6 36 0
3 17 10 6 -36 0
3 17 10 -6 36 0
3 17 -10 6 36 0
3 17 -10 -6 -36 0
3 -17 10 6 36 0
3 -17 10 -6 -36 0
3 -17 -10 6 -36 0
3 -17 -10 -6 36 0
3 -17 -10 -6 -36 0
3 28 3 23 12 0
3 28 3 23 -12 0
3 28 3 -23 12 0
3 28 -3 23 12 0
3 28 -3 -23 -12 0
3 -28 3 23 12 0
3 -28 3 -23 -12 0
3 -28 -3 23 -12 0
3 -28 -3 -23 12 0
3 -28 -3 -23 -12 0
3 33 7 27 32 0
3 33 7 27 -32 0
3 33 7 -27 32 0
3 33 -7 27 32 0
3 33 -7 -27 -32 0
3 -33 7 27 32 0
3 -33 7 -27 -32 0
3 -33 -7 27 -32 0
3 -33 -7 -27 32 0
3 -33 -7 -27 -32 0
3 20 35 11 4 0
3 20 35 11 -4 0
3 20 35 -11 4 0
3 20 -35 11 4 0
3 20 -35 -11 -4 0
3 -20 35 11 4 0
3 -20 35 -11 -4 0
3 -20 -35 11 -4 0
3 -20 -35 -11 4 0
3 -20 -35 -11 -4 0
3 16 31 22 25 0
3 16 31 -22 -25 0
3 16 -31 22 -25 0
3 16 -31 -22 25 0
3 16 -31 -22 -25 0
3 -16 31 22 -25 0
3 -16 31 -22 25 0
3 -16 31 -22 -25 0
3 -16 -31 22 25 0
3 -16 -31 22 -25 0
3 -16 -31 -22 25 0
3 -16 -31 -22 -25 0
1 -8 0
1 -33 0
1 5 0
1 -18 0
1 -28 0
1 -6 0
1 -3 0
1 -34 0
1 36 0
1 -12 0
1 -26 0
1 19 0
1 -17 0
1 27 0
1 -21 0
1 -7 0
1 31 0
1 15 0
1 24 0
1 -11 0
1 23 0
1 -4 0
1 -2 0
1 22 0
1 -9 0
1 -30 0
1 -10 0
1 13 0
1 -29 0
1 1 0
1 -32 0
1 -35 0
1 -14 0
1 20 0
1 25 0
1 16 0
