benchmarks/sgen-base-s100-g4-0.cnf
CPUTime_Median = 0.00399861527867
benchmarks/sgen-base-s100-g4-1.cnf
CPUTime_Median = 0.00400293963174
benchmarks/sgen-base-s100-g4-2.cnf
CPUTime_Median = 0.00390814205339
benchmarks/sgen-base-s100-g4-3.cnf
CPUTime_Median = 0.00346772257303
benchmarks/sgen-base-s100-g4-4.cnf
CPUTime_Median = 0.00353543130072
benchmarks/sgen-base-s100-g4-5.cnf
CPUTime_Median = 0.00428894867839
benchmarks/sgen-base-s100-g4-6.cnf
CPUTime_Median = 0.00460445962048
benchmarks/sgen-base-s100-g4-7.cnf
CPUTime_Median = 0.00370118997947
benchmarks/sgen-base-s100-g4-8.cnf
CPUTime_Median = 0.00653224454157
benchmarks/sgen-base-s100-g4-9.cnf
CPUTime_Median = 0.00318872776673
benchmarks/sgen-base-s100-g5-0.cnf
CPUTime_Median = 0.0214700695233
benchmarks/sgen-base-s100-g5-1.cnf
CPUTime_Median = 0.00897529033641
benchmarks/sgen-base-s100-g5-2.cnf
CPUTime_Median = 0.021360831329
benchmarks/sgen-base-s100-g5-3.cnf
CPUTime_Median = 0.00737578234574
benchmarks/sgen-base-s100-g5-4.cnf
CPUTime_Median = 0.00593661555852
benchmarks/sgen-base-s100-g5-5.cnf
CPUTime_Median = 0.00414971328983
benchmarks/sgen-base-s100-g5-6.cnf
CPUTime_Median = 0.0133979978305
benchmarks/sgen-base-s100-g5-7.cnf
CPUTime_Median = 0.0144843362631
benchmarks/sgen-base-s100-g5-8.cnf
CPUTime_Median = 0.00455879018229
benchmarks/sgen-base-s100-g5-9.cnf
CPUTime_Median = 0.0100180778426
benchmarks/sgen-base-s104-g4-0.cnf
CPUTime_Median = 0.00483002430284
benchmarks/sgen-base-s104-g4-1.cnf
CPUTime_Median = 0.00470088572853
benchmarks/sgen-base-s104-g4-2.cnf
CPUTime_Median = 0.00467650405721
benchmarks/sgen-base-s104-g4-3.cnf
CPUTime_Median = 0.00417243953842
benchmarks/sgen-base-s104-g4-4.cnf
CPUTime_Median = 0.00533229542613
benchmarks/sgen-base-s104-g4-5.cnf
CPUTime_Median = 0.0043557056963
benchmarks/sgen-base-s104-g4-6.cnf
CPUTime_Median = 0.00456645597907
benchmarks/sgen-base-s104-g4-7.cnf
CPUTime_Median = 0.00350686626658
benchmarks/sgen-base-s104-g4-8.cnf
CPUTime_Median = 0.00466461086522
benchmarks/sgen-base-s104-g4-9.cnf
CPUTime_Median = 0.00537735681358
benchmarks/sgen-base-s108-g4-0.cnf
CPUTime_Median = 0.00407304525798
benchmarks/sgen-base-s108-g4-1.cnf
CPUTime_Median = 0.00695144665998
benchmarks/sgen-base-s108-g4-2.cnf
CPUTime_Median = 0.00426696964839
benchmarks/sgen-base-s108-g4-3.cnf
CPUTime_Median = 0.00598156453659
benchmarks/sgen-base-s108-g4-4.cnf
CPUTime_Median = 0.00291373509365
benchmarks/sgen-base-s108-g4-5.cnf
CPUTime_Median = 0.00529068160103
benchmarks/sgen-base-s108-g4-6.cnf
CPUTime_Median = 0.00599599811713
benchmarks/sgen-base-s108-g4-7.cnf
CPUTime_Median = 0.00586651938734
benchmarks/sgen-base-s108-g4-8.cnf
CPUTime_Median = 0.00329578084828
benchmarks/sgen-base-s108-g4-9.cnf
CPUTime_Median = 0.00560848164023
benchmarks/sgen-base-s108-g6-0.cnf
CPUTime_Median = 0.00214059432404
benchmarks/sgen-base-s108-g6-1.cnf
CPUTime_Median = 0.00255790247082
benchmarks/sgen-base-s108-g6-2.cnf
CPUTime_Median = 0.00216042829509
benchmarks/sgen-base-s108-g6-3.cnf
CPUTime_Median = 0.00197606003436
benchmarks/sgen-base-s108-g6-4.cnf
CPUTime_Median = 0.00160278516514
benchmarks/sgen-base-s108-g6-5.cnf
CPUTime_Median = 0.0025956567173
benchmarks/sgen-base-s108-g6-6.cnf
CPUTime_Median = 0.0031434854728
benchmarks/sgen-base-s108-g6-7.cnf
CPUTime_Median = 0.00133370241883
benchmarks/sgen-base-s108-g6-8.cnf
CPUTime_Median = 0.00399067615238
benchmarks/sgen-base-s108-g6-9.cnf
CPUTime_Median = 0.00227058667776
benchmarks/sgen-base-s112-g4-0.cnf
CPUTime_Median = 0.00389919653799
benchmarks/sgen-base-s112-g4-1.cnf
CPUTime_Median = 0.00451409424196
benchmarks/sgen-base-s112-g4-2.cnf
CPUTime_Median = 0.00574117645028
benchmarks/sgen-base-s112-g4-3.cnf
CPUTime_Median = 0.00538936966407
benchmarks/sgen-base-s112-g4-4.cnf
CPUTime_Median = 0.0052836837523
benchmarks/sgen-base-s112-g4-5.cnf
CPUTime_Median = 0.0062268545856
benchmarks/sgen-base-s112-g4-6.cnf
CPUTime_Median = 0.00842253231145
benchmarks/sgen-base-s112-g4-7.cnf
CPUTime_Median = 0.00599676889217
benchmarks/sgen-base-s112-g4-8.cnf
CPUTime_Median = 0.00510098632316
benchmarks/sgen-base-s112-g4-9.cnf
CPUTime_Median = 0.00747765588025
benchmarks/sgen-base-s116-g4-0.cnf
CPUTime_Median = 0.00825626332132
benchmarks/sgen-base-s116-g4-1.cnf
CPUTime_Median = 0.00488503233247
benchmarks/sgen-base-s116-g4-2.cnf
CPUTime_Median = 0.0057205909177
benchmarks/sgen-base-s116-g4-3.cnf
CPUTime_Median = 0.00520503101655
benchmarks/sgen-base-s116-g4-4.cnf
CPUTime_Median = 0.00577097812699
benchmarks/sgen-base-s116-g4-5.cnf
CPUTime_Median = 0.00796326048044
benchmarks/sgen-base-s116-g4-6.cnf
CPUTime_Median = 0.00917744427164
benchmarks/sgen-base-s116-g4-7.cnf
CPUTime_Median = 0.00797013079849
benchmarks/sgen-base-s116-g4-8.cnf
CPUTime_Median = 0.00954826459378
benchmarks/sgen-base-s116-g4-9.cnf
CPUTime_Median = 0.0104722303508
benchmarks/sgen-base-s120-g4-0.cnf
CPUTime_Median = 0.00971011600845
benchmarks/sgen-base-s120-g4-1.cnf
CPUTime_Median = 0.00847398361861
benchmarks/sgen-base-s120-g4-2.cnf
CPUTime_Median = 0.0101561781645
benchmarks/sgen-base-s120-g4-3.cnf
CPUTime_Median = 0.010802641087
benchmarks/sgen-base-s120-g4-4.cnf
CPUTime_Median = 0.00965010653384
benchmarks/sgen-base-s120-g4-5.cnf
CPUTime_Median = 0.0053642658833
benchmarks/sgen-base-s120-g4-6.cnf
CPUTime_Median = 0.00946896339367
benchmarks/sgen-base-s120-g4-7.cnf
CPUTime_Median = 0.00807108868157
benchmarks/sgen-base-s120-g4-8.cnf
CPUTime_Median = 0.00657070906844
benchmarks/sgen-base-s120-g4-9.cnf
CPUTime_Median = 0.00609337096242
benchmarks/sgen-base-s120-g5-0.cnf
CPUTime_Median = 0.0281227826055
benchmarks/sgen-base-s120-g5-1.cnf
CPUTime_Median = 0.0245200233336
benchmarks/sgen-base-s120-g5-2.cnf
CPUTime_Median = 0.0580802700625
benchmarks/sgen-base-s120-g5-3.cnf
CPUTime_Median = 0.0461613660686
benchmarks/sgen-base-s120-g5-4.cnf
CPUTime_Median = 0.0154751060972
benchmarks/sgen-base-s120-g5-5.cnf
CPUTime_Median = 0.0272885601359
benchmarks/sgen-base-s120-g5-6.cnf
CPUTime_Median = 0.0270075129695
benchmarks/sgen-base-s120-g5-7.cnf
CPUTime_Median = 0.00941299951838
benchmarks/sgen-base-s120-g5-8.cnf
CPUTime_Median = 0.0394347623838
benchmarks/sgen-base-s120-g5-9.cnf
CPUTime_Median = 0.0188207049764
benchmarks/sgen-base-s120-g6-0.cnf
CPUTime_Median = 0.00519728083943
benchmarks/sgen-base-s120-g6-1.cnf
CPUTime_Median = 0.00536081382822
benchmarks/sgen-base-s120-g6-2.cnf
CPUTime_Median = 0.00479792280755
benchmarks/sgen-base-s120-g6-3.cnf
CPUTime_Median = 0.00453218589673
benchmarks/sgen-base-s120-g6-4.cnf
CPUTime_Median = 0.00573895073299
benchmarks/sgen-base-s120-g6-5.cnf
CPUTime_Median = 0.00449154402727
benchmarks/sgen-base-s120-g6-6.cnf
CPUTime_Median = 0.00461493136581
benchmarks/sgen-base-s120-g6-7.cnf
CPUTime_Median = 0.00450346820165
benchmarks/sgen-base-s120-g6-8.cnf
CPUTime_Median = 0.00306037295773
benchmarks/sgen-base-s120-g6-9.cnf
CPUTime_Median = 0.00407148762013
benchmarks/sgen-base-s124-g4-0.cnf
CPUTime_Median = 0.0118802447415
benchmarks/sgen-base-s124-g4-1.cnf
CPUTime_Median = 0.0133461459943
benchmarks/sgen-base-s124-g4-2.cnf
CPUTime_Median = 0.0108544212163
benchmarks/sgen-base-s124-g4-3.cnf
CPUTime_Median = 0.00873542866489
benchmarks/sgen-base-s124-g4-4.cnf
CPUTime_Median = 0.00791457688949
benchmarks/sgen-base-s124-g4-5.cnf
CPUTime_Median = 0.00700205532824
benchmarks/sgen-base-s124-g4-6.cnf
CPUTime_Median = 0.00855282097409
benchmarks/sgen-base-s124-g4-7.cnf
CPUTime_Median = 0.0124327180011
benchmarks/sgen-base-s124-g4-8.cnf
CPUTime_Median = 0.00698060598771
benchmarks/sgen-base-s124-g4-9.cnf
CPUTime_Median = 0.00973558662195
benchmarks/sgen-base-s128-g4-0.cnf
CPUTime_Median = 0.00958477611471
benchmarks/sgen-base-s128-g4-1.cnf
CPUTime_Median = 0.0114735380931
benchmarks/sgen-base-s128-g4-2.cnf
CPUTime_Median = 0.00922577319602
benchmarks/sgen-base-s128-g4-3.cnf
CPUTime_Median = 0.0117069765238
benchmarks/sgen-base-s128-g4-4.cnf
CPUTime_Median = 0.0078630363292
benchmarks/sgen-base-s128-g4-5.cnf
CPUTime_Median = 0.0141118507487
benchmarks/sgen-base-s128-g4-6.cnf
CPUTime_Median = 0.0120262161891
benchmarks/sgen-base-s128-g4-7.cnf
CPUTime_Median = 0.0153264488544
benchmarks/sgen-base-s128-g4-8.cnf
CPUTime_Median = 0.014817296414
benchmarks/sgen-base-s128-g4-9.cnf
CPUTime_Median = 0.00787960310042
benchmarks/sgen-base-s132-g4-0.cnf
CPUTime_Median = 0.0122498704881
benchmarks/sgen-base-s132-g4-1.cnf
CPUTime_Median = 0.0196278887447
benchmarks/sgen-base-s132-g4-2.cnf
CPUTime_Median = 0.0104522970418
benchmarks/sgen-base-s132-g4-3.cnf
CPUTime_Median = 0.0107150170895
benchmarks/sgen-base-s132-g4-4.cnf
CPUTime_Median = 0.0116773224872
benchmarks/sgen-base-s132-g4-5.cnf
CPUTime_Median = 0.016003940307
benchmarks/sgen-base-s132-g4-6.cnf
CPUTime_Median = 0.0193380571212
benchmarks/sgen-base-s132-g4-7.cnf
CPUTime_Median = 0.0102803118726
benchmarks/sgen-base-s132-g4-8.cnf
CPUTime_Median = 0.0122657918132
benchmarks/sgen-base-s132-g4-9.cnf
CPUTime_Median = 0.0111388490998
benchmarks/sgen-base-s132-g6-0.cnf
CPUTime_Median = 0.0117448627687
benchmarks/sgen-base-s132-g6-1.cnf
CPUTime_Median = 0.0116034399378
benchmarks/sgen-base-s132-g6-2.cnf
CPUTime_Median = 0.0104989726534
benchmarks/sgen-base-s132-g6-3.cnf
CPUTime_Median = 0.00738517040392
benchmarks/sgen-base-s132-g6-4.cnf
CPUTime_Median = 0.0111556804175
benchmarks/sgen-base-s132-g6-5.cnf
CPUTime_Median = 0.0127483598673
benchmarks/sgen-base-s132-g6-6.cnf
CPUTime_Median = 0.00766066517238
benchmarks/sgen-base-s132-g6-7.cnf
CPUTime_Median = 0.00951023554023
benchmarks/sgen-base-s132-g6-8.cnf
CPUTime_Median = 0.0108015416717
benchmarks/sgen-base-s132-g6-9.cnf
CPUTime_Median = 0.0104037910261
benchmarks/sgen-base-s136-g4-0.cnf
CPUTime_Median = 0.0120850107242
benchmarks/sgen-base-s136-g4-1.cnf
CPUTime_Median = 0.00938419853143
benchmarks/sgen-base-s136-g4-2.cnf
CPUTime_Median = 0.0186390850899
benchmarks/sgen-base-s136-g4-3.cnf
CPUTime_Median = 0.0205462338751
benchmarks/sgen-base-s136-g4-4.cnf
CPUTime_Median = 0.0120517618997
benchmarks/sgen-base-s136-g4-5.cnf
CPUTime_Median = 0.0173440677914
benchmarks/sgen-base-s136-g4-6.cnf
CPUTime_Median = 0.0178882827682
benchmarks/sgen-base-s136-g4-7.cnf
CPUTime_Median = 0.0111401138506
benchmarks/sgen-base-s136-g4-8.cnf
CPUTime_Median = 0.0128797670693
benchmarks/sgen-base-s136-g4-9.cnf
CPUTime_Median = 0.0124011093271
benchmarks/sgen-base-s140-g4-0.cnf
CPUTime_Median = 0.014417829402
benchmarks/sgen-base-s140-g4-1.cnf
CPUTime_Median = 0.0190476825493
benchmarks/sgen-base-s140-g4-2.cnf
CPUTime_Median = 0.0204277873395
benchmarks/sgen-base-s140-g4-3.cnf
CPUTime_Median = 0.0176146055768
benchmarks/sgen-base-s140-g4-4.cnf
CPUTime_Median = 0.023840585241
benchmarks/sgen-base-s140-g4-5.cnf
CPUTime_Median = 0.0197731511139
benchmarks/sgen-base-s140-g4-6.cnf
CPUTime_Median = 0.0135979421939
benchmarks/sgen-base-s140-g4-7.cnf
CPUTime_Median = 0.0202498435515
benchmarks/sgen-base-s140-g4-8.cnf
CPUTime_Median = 0.0207280721969
benchmarks/sgen-base-s140-g4-9.cnf
CPUTime_Median = 0.0196928047398
benchmarks/sgen-base-s140-g5-0.cnf
CPUTime_Median = 0.13898351153
benchmarks/sgen-base-s140-g5-1.cnf
CPUTime_Median = 0.0929406667771
benchmarks/sgen-base-s140-g5-2.cnf
CPUTime_Median = 0.156997957754
benchmarks/sgen-base-s140-g5-3.cnf
CPUTime_Median = 0.0507453122535
benchmarks/sgen-base-s140-g5-4.cnf
CPUTime_Median = 0.0700597966196
benchmarks/sgen-base-s140-g5-5.cnf
CPUTime_Median = 0.101879017992
benchmarks/sgen-base-s140-g5-6.cnf
CPUTime_Median = 0.162901907276
benchmarks/sgen-base-s140-g5-7.cnf
CPUTime_Median = 0.110163077382
benchmarks/sgen-base-s140-g5-8.cnf
CPUTime_Median = 0.0512511427682
benchmarks/sgen-base-s140-g5-9.cnf
CPUTime_Median = 0.114587359955
benchmarks/sgen-base-s144-g4-0.cnf
CPUTime_Median = 0.0215187207693
benchmarks/sgen-base-s144-g4-1.cnf
CPUTime_Median = 0.0198512506141
benchmarks/sgen-base-s144-g4-2.cnf
CPUTime_Median = 0.0179281683192
benchmarks/sgen-base-s144-g4-3.cnf
CPUTime_Median = 0.014767278278
benchmarks/sgen-base-s144-g4-4.cnf
CPUTime_Median = 0.0285949340023
benchmarks/sgen-base-s144-g4-5.cnf
CPUTime_Median = 0.0193454931133
benchmarks/sgen-base-s144-g4-6.cnf
CPUTime_Median = 0.0247748502162
benchmarks/sgen-base-s144-g4-7.cnf
CPUTime_Median = 0.0198427534602
benchmarks/sgen-base-s144-g4-8.cnf
CPUTime_Median = 0.018700679406
benchmarks/sgen-base-s144-g4-9.cnf
CPUTime_Median = 0.0214642649779
benchmarks/sgen-base-s144-g6-0.cnf
CPUTime_Median = 0.0246562726216
benchmarks/sgen-base-s144-g6-1.cnf
CPUTime_Median = 0.0237265802676
benchmarks/sgen-base-s144-g6-2.cnf
CPUTime_Median = 0.0148322603268
benchmarks/sgen-base-s144-g6-3.cnf
CPUTime_Median = 0.0233926628524
benchmarks/sgen-base-s144-g6-4.cnf
CPUTime_Median = 0.016496478699
benchmarks/sgen-base-s144-g6-5.cnf
CPUTime_Median = 0.0307107190281
benchmarks/sgen-base-s144-g6-6.cnf
CPUTime_Median = 0.0251733270059
benchmarks/sgen-base-s144-g6-7.cnf
CPUTime_Median = 0.0153360164438
benchmarks/sgen-base-s144-g6-8.cnf
CPUTime_Median = 0.0158922744838
benchmarks/sgen-base-s144-g6-9.cnf
CPUTime_Median = 0.0231462564338
benchmarks/sgen-base-s148-g4-0.cnf
CPUTime_Median = 0.028183170233
benchmarks/sgen-base-s148-g4-1.cnf
CPUTime_Median = 0.0157754391865
benchmarks/sgen-base-s148-g4-2.cnf
CPUTime_Median = 0.0325035373667
benchmarks/sgen-base-s148-g4-3.cnf
CPUTime_Median = 0.040790926735
benchmarks/sgen-base-s148-g4-4.cnf
CPUTime_Median = 0.0337522116374
benchmarks/sgen-base-s148-g4-5.cnf
CPUTime_Median = 0.0235889199173
benchmarks/sgen-base-s148-g4-6.cnf
CPUTime_Median = 0.0311700478888
benchmarks/sgen-base-s148-g4-7.cnf
CPUTime_Median = 0.0154689150995
benchmarks/sgen-base-s148-g4-8.cnf
CPUTime_Median = 0.0231154828063
benchmarks/sgen-base-s148-g4-9.cnf
CPUTime_Median = 0.025063122785
benchmarks/sgen-base-s152-g4-0.cnf
CPUTime_Median = 0.0191868322757
benchmarks/sgen-base-s152-g4-1.cnf
CPUTime_Median = 0.0314508071389
benchmarks/sgen-base-s152-g4-2.cnf
CPUTime_Median = 0.0277912704455
benchmarks/sgen-base-s152-g4-3.cnf
CPUTime_Median = 0.0297289879301
benchmarks/sgen-base-s152-g4-4.cnf
CPUTime_Median = 0.0299207438536
benchmarks/sgen-base-s152-g4-5.cnf
CPUTime_Median = 0.0216810491702
benchmarks/sgen-base-s152-g4-6.cnf
CPUTime_Median = 0.0229954792455
benchmarks/sgen-base-s152-g4-7.cnf
CPUTime_Median = 0.0266709321157
benchmarks/sgen-base-s152-g4-8.cnf
CPUTime_Median = 0.0342254242041
benchmarks/sgen-base-s152-g4-9.cnf
CPUTime_Median = 0.0372621828341
benchmarks/sgen-base-s156-g4-0.cnf
CPUTime_Median = 0.0410551302823
benchmarks/sgen-base-s156-g4-1.cnf
CPUTime_Median = 0.0339920771541
benchmarks/sgen-base-s156-g4-2.cnf
CPUTime_Median = 0.0411815505137
benchmarks/sgen-base-s156-g4-3.cnf
CPUTime_Median = 0.0341750440524
benchmarks/sgen-base-s156-g4-4.cnf
CPUTime_Median = 0.036127023965
benchmarks/sgen-base-s156-g4-5.cnf
CPUTime_Median = 0.0335885647266
benchmarks/sgen-base-s156-g4-6.cnf
CPUTime_Median = 0.0273210015599
benchmarks/sgen-base-s156-g4-7.cnf
CPUTime_Median = 0.0294691399728
benchmarks/sgen-base-s156-g4-8.cnf
CPUTime_Median = 0.0226333551272
benchmarks/sgen-base-s156-g4-9.cnf
CPUTime_Median = 0.0384769885783
benchmarks/sgen-base-s156-g6-0.cnf
CPUTime_Median = 0.0455941702547
benchmarks/sgen-base-s156-g6-1.cnf
CPUTime_Median = 0.0506875029317
benchmarks/sgen-base-s156-g6-2.cnf
CPUTime_Median = 0.0507790314422
benchmarks/sgen-base-s156-g6-3.cnf
CPUTime_Median = 0.0494474161867
benchmarks/sgen-base-s156-g6-4.cnf
CPUTime_Median = 0.056717940941
benchmarks/sgen-base-s156-g6-5.cnf
CPUTime_Median = 0.0464060820825
benchmarks/sgen-base-s156-g6-6.cnf
CPUTime_Median = 0.0578855505481
benchmarks/sgen-base-s156-g6-7.cnf
CPUTime_Median = 0.0408809471963
benchmarks/sgen-base-s156-g6-8.cnf
CPUTime_Median = 0.0520797885181
benchmarks/sgen-base-s156-g6-9.cnf
CPUTime_Median = 0.0690218038864
benchmarks/sgen-base-s32-g4-0.cnf
CPUTime_Median = 0
benchmarks/sgen-base-s32-g4-1.cnf
CPUTime_Median = 0
benchmarks/sgen-base-s32-g4-2.cnf
CPUTime_Median = 0.000131378110309
benchmarks/sgen-base-s32-g4-3.cnf
CPUTime_Median = 0.000359546653034
benchmarks/sgen-base-s32-g4-4.cnf
CPUTime_Median = 0
benchmarks/sgen-base-s32-g4-5.cnf
CPUTime_Median = 7.35147570482e-05
benchmarks/sgen-base-s32-g4-6.cnf
CPUTime_Median = 0.00013581733466
benchmarks/sgen-base-s32-g4-7.cnf
CPUTime_Median = 5.53742707406e-05
benchmarks/sgen-base-s32-g4-8.cnf
CPUTime_Median = 0
benchmarks/sgen-base-s32-g4-9.cnf
CPUTime_Median = 0.000117240555018
benchmarks/sgen-base-s36-g4-0.cnf
CPUTime_Median = 0.000159771093556
benchmarks/sgen-base-s36-g4-1.cnf
CPUTime_Median = 0.000212175267574
benchmarks/sgen-base-s36-g4-2.cnf
CPUTime_Median = 0.000252354481036
benchmarks/sgen-base-s36-g4-3.cnf
CPUTime_Median = 0
benchmarks/sgen-base-s36-g4-4.cnf
CPUTime_Median = 6.1213645926e-05
benchmarks/sgen-base-s36-g4-5.cnf
CPUTime_Median = 0.000263966069822
benchmarks/sgen-base-s36-g4-6.cnf
CPUTime_Median = 0
benchmarks/sgen-base-s36-g4-7.cnf
CPUTime_Median = 0
benchmarks/sgen-base-s36-g4-8.cnf
CPUTime_Median = 4.77090172154e-05
benchmarks/sgen-base-s36-g4-9.cnf
CPUTime_Median = 0.000118703466332
benchmarks/sgen-base-s36-g6-0.cnf
CPUTime_Median = 0
benchmarks/sgen-base-s36-g6-1.cnf
CPUTime_Median = 0
benchmarks/sgen-base-s36-g6-2.cnf
CPUTime_Median = 0
benchmarks/sgen-base-s36-g6-3.cnf
CPUTime_Median = 0
benchmarks/sgen-base-s36-g6-4.cnf
CPUTime_Median = 0
benchmarks/sgen-base-s36-g6-5.cnf
CPUTime_Median = 0
benchmarks/sgen-base-s36-g6-6.cnf
CPUTime_Median = 0
benchmarks/sgen-base-s36-g6-7.cnf
CPUTime_Median = 0
benchmarks/sgen-base-s36-g6-8.cnf
CPUTime_Median = 0
benchmarks/sgen-base-s36-g6-9.cnf
CPUTime_Median = 0
benchmarks/sgen-base-s40-g4-0.cnf
CPUTime_Median = 0.000192445623913
benchmarks/sgen-base-s40-g4-1.cnf
CPUTime_Median = 0.000256333400582
benchmarks/sgen-base-s40-g4-2.cnf
CPUTime_Median = 0.000157434878991
benchmarks/sgen-base-s40-g4-3.cnf
CPUTime_Median = 6.23078343818e-05
benchmarks/sgen-base-s40-g4-4.cnf
CPUTime_Median = 8.24675941834e-05
benchmarks/sgen-base-s40-g4-5.cnf
CPUTime_Median = 0.000149025043373
benchmarks/sgen-base-s40-g4-6.cnf
CPUTime_Median = 0.000297179115091
benchmarks/sgen-base-s40-g4-7.cnf
CPUTime_Median = 6.58980602356e-05
benchmarks/sgen-base-s40-g4-8.cnf
CPUTime_Median = 0.000187957043347
benchmarks/sgen-base-s40-g4-9.cnf
CPUTime_Median = 0
benchmarks/sgen-base-s40-g5-0.cnf
CPUTime_Median = 0
benchmarks/sgen-base-s40-g5-1.cnf
CPUTime_Median = 0.000145013206476
benchmarks/sgen-base-s40-g5-2.cnf
CPUTime_Median = 0
benchmarks/sgen-base-s40-g5-3.cnf
CPUTime_Median = 0.000121660372276
benchmarks/sgen-base-s40-g5-4.cnf
CPUTime_Median = 0
benchmarks/sgen-base-s40-g5-5.cnf
CPUTime_Median = 0
benchmarks/sgen-base-s40-g5-6.cnf
CPUTime_Median = 0.000122604691954
benchmarks/sgen-base-s40-g5-7.cnf
CPUTime_Median = 6.18965962745e-05
benchmarks/sgen-base-s40-g5-8.cnf
CPUTime_Median = 0
benchmarks/sgen-base-s40-g5-9.cnf
CPUTime_Median = 5.84160822165e-05
benchmarks/sgen-base-s44-g4-0.cnf
CPUTime_Median = 0.000264205945147
benchmarks/sgen-base-s44-g4-1.cnf
CPUTime_Median = 6.58476658477e-05
benchmarks/sgen-base-s44-g4-2.cnf
CPUTime_Median = 0.000321019596569
benchmarks/sgen-base-s44-g4-3.cnf
CPUTime_Median = 0.000315564560866
benchmarks/sgen-base-s44-g4-4.cnf
CPUTime_Median = 0.000306298067458
benchmarks/sgen-base-s44-g4-5.cnf
CPUTime_Median = 0
benchmarks/sgen-base-s44-g4-6.cnf
CPUTime_Median = 0.000203577547524
benchmarks/sgen-base-s44-g4-7.cnf
CPUTime_Median = 0.000132400334966
benchmarks/sgen-base-s44-g4-8.cnf
CPUTime_Median = 0.000269870795208
benchmarks/sgen-base-s44-g4-9.cnf
CPUTime_Median = 0.000217743511782
benchmarks/sgen-base-s48-g4-0.cnf
CPUTime_Median = 0.000211507321407
benchmarks/sgen-base-s48-g4-1.cnf
CPUTime_Median = 0.000146798345431
benchmarks/sgen-base-s48-g4-2.cnf
CPUTime_Median = 0.000306254049177
benchmarks/sgen-base-s48-g4-3.cnf
CPUTime_Median = 0.000445395067942
benchmarks/sgen-base-s48-g4-4.cnf
CPUTime_Median = 7.15850414646e-05
benchmarks/sgen-base-s48-g4-5.cnf
CPUTime_Median = 0.000189774641507
benchmarks/sgen-base-s48-g4-6.cnf
CPUTime_Median = 0.000183787764812
benchmarks/sgen-base-s48-g4-7.cnf
CPUTime_Median = 0.000324599807353
benchmarks/sgen-base-s48-g4-8.cnf
CPUTime_Median = 0.000150957327373
benchmarks/sgen-base-s48-g4-9.cnf
CPUTime_Median = 0.000125398970249
benchmarks/sgen-base-s48-g6-0.cnf
CPUTime_Median = 0
benchmarks/sgen-base-s48-g6-1.cnf
CPUTime_Median = 6.55962404543e-05
benchmarks/sgen-base-s48-g6-2.cnf
CPUTime_Median = 4.68245516169e-05
benchmarks/sgen-base-s48-g6-3.cnf
CPUTime_Median = 0
benchmarks/sgen-base-s48-g6-4.cnf
CPUTime_Median = 0
benchmarks/sgen-base-s48-g6-5.cnf
CPUTime_Median = 5.96581329598e-05
benchmarks/sgen-base-s48-g6-6.cnf
CPUTime_Median = 0
benchmarks/sgen-base-s48-g6-7.cnf
CPUTime_Median = 6.06949425721e-05
benchmarks/sgen-base-s48-g6-8.cnf
CPUTime_Median = 5.66609475315e-05
benchmarks/sgen-base-s48-g6-9.cnf
CPUTime_Median = 5.06661432392e-05
benchmarks/sgen-base-s52-g4-0.cnf
CPUTime_Median = 0.000218390002095
benchmarks/sgen-base-s52-g4-1.cnf
CPUTime_Median = 0.000406825482188
benchmarks/sgen-base-s52-g4-2.cnf
CPUTime_Median = 0.000211071381851
benchmarks/sgen-base-s52-g4-3.cnf
CPUTime_Median = 0.000223707155113
benchmarks/sgen-base-s52-g4-4.cnf
CPUTime_Median = 0.000114467552445
benchmarks/sgen-base-s52-g4-5.cnf
CPUTime_Median = 0.000359401841861
benchmarks/sgen-base-s52-g4-6.cnf
CPUTime_Median = 0.00035890554191
benchmarks/sgen-base-s52-g4-7.cnf
CPUTime_Median = 0.000406088642588
benchmarks/sgen-base-s52-g4-8.cnf
CPUTime_Median = 6.68717531616e-05
benchmarks/sgen-base-s52-g4-9.cnf
CPUTime_Median = 0.000188799165776
benchmarks/sgen-base-s56-g4-0.cnf
CPUTime_Median = 0.000432845112111
benchmarks/sgen-base-s56-g4-1.cnf
CPUTime_Median = 0.000341619209932
benchmarks/sgen-base-s56-g4-2.cnf
CPUTime_Median = 0.000681702190306
benchmarks/sgen-base-s56-g4-3.cnf
CPUTime_Median = 0.000206942671287
benchmarks/sgen-base-s56-g4-4.cnf
CPUTime_Median = 0.000368569549454
benchmarks/sgen-base-s56-g4-5.cnf
CPUTime_Median = 0.000513317053375
benchmarks/sgen-base-s56-g4-6.cnf
CPUTime_Median = 0.000363335743478
benchmarks/sgen-base-s56-g4-7.cnf
CPUTime_Median = 0.000640503359797
benchmarks/sgen-base-s56-g4-8.cnf
CPUTime_Median = 0.000283688406958
benchmarks/sgen-base-s56-g4-9.cnf
CPUTime_Median = 0.000135298869144
benchmarks/sgen-base-s60-g4-0.cnf
CPUTime_Median = 0.000339544338352
benchmarks/sgen-base-s60-g4-1.cnf
CPUTime_Median = 0.00100766984621
benchmarks/sgen-base-s60-g4-2.cnf
CPUTime_Median = 0.000563681050011
benchmarks/sgen-base-s60-g4-3.cnf
CPUTime_Median = 0.000646121747157
benchmarks/sgen-base-s60-g4-4.cnf
CPUTime_Median = 0.00078484510257
benchmarks/sgen-base-s60-g4-5.cnf
CPUTime_Median = 0.000138017979961
benchmarks/sgen-base-s60-g4-6.cnf
CPUTime_Median = 0.000645987751127
benchmarks/sgen-base-s60-g4-7.cnf
CPUTime_Median = 0.00052889107993
benchmarks/sgen-base-s60-g4-8.cnf
CPUTime_Median = 0.0011338041992
benchmarks/sgen-base-s60-g4-9.cnf
CPUTime_Median = 0.000541731149514
benchmarks/sgen-base-s60-g5-0.cnf
CPUTime_Median = 0.000404642718786
benchmarks/sgen-base-s60-g5-1.cnf
CPUTime_Median = 0.000139148887794
benchmarks/sgen-base-s60-g5-2.cnf
CPUTime_Median = 0.000563780198958
benchmarks/sgen-base-s60-g5-3.cnf
CPUTime_Median = 0.000953535253596
benchmarks/sgen-base-s60-g5-4.cnf
CPUTime_Median = 0.000216149477716
benchmarks/sgen-base-s60-g5-5.cnf
CPUTime_Median = 0.000295721253587
benchmarks/sgen-base-s60-g5-6.cnf
CPUTime_Median = 0.000120251498757
benchmarks/sgen-base-s60-g5-7.cnf
CPUTime_Median = 0.00050211986537
benchmarks/sgen-base-s60-g5-8.cnf
CPUTime_Median = 0.00031552267047
benchmarks/sgen-base-s60-g5-9.cnf
CPUTime_Median = 0.000240658335873
benchmarks/sgen-base-s60-g6-0.cnf
CPUTime_Median = 6.53538714879e-05
benchmarks/sgen-base-s60-g6-1.cnf
CPUTime_Median = 0.000172010783252
benchmarks/sgen-base-s60-g6-2.cnf
CPUTime_Median = 6.17188181792e-05
benchmarks/sgen-base-s60-g6-3.cnf
CPUTime_Median = 0.000195806009411
benchmarks/sgen-base-s60-g6-4.cnf
CPUTime_Median = 0.000177089240604
benchmarks/sgen-base-s60-g6-5.cnf
CPUTime_Median = 6.84481486148e-05
benchmarks/sgen-base-s60-g6-6.cnf
CPUTime_Median = 0.00018720248478
benchmarks/sgen-base-s60-g6-7.cnf
CPUTime_Median = 0.000105511822909
benchmarks/sgen-base-s60-g6-8.cnf
CPUTime_Median = 5.1770664268e-05
benchmarks/sgen-base-s60-g6-9.cnf
CPUTime_Median = 5.86443863284e-05
benchmarks/sgen-base-s64-g4-0.cnf
CPUTime_Median = 0.000723955662217
benchmarks/sgen-base-s64-g4-1.cnf
CPUTime_Median = 0.000545165511373
benchmarks/sgen-base-s64-g4-2.cnf
CPUTime_Median = 0.000378829848031
benchmarks/sgen-base-s64-g4-3.cnf
CPUTime_Median = 0.000983917883899
benchmarks/sgen-base-s64-g4-4.cnf
CPUTime_Median = 0.000455108497746
benchmarks/sgen-base-s64-g4-5.cnf
CPUTime_Median = 0.000595681035517
benchmarks/sgen-base-s64-g4-6.cnf
CPUTime_Median = 0.00051722368286
benchmarks/sgen-base-s64-g4-7.cnf
CPUTime_Median = 0.000691429548818
benchmarks/sgen-base-s64-g4-8.cnf
CPUTime_Median = 0.000479309126771
benchmarks/sgen-base-s64-g4-9.cnf
CPUTime_Median = 0.00073923887682
benchmarks/sgen-base-s68-g4-0.cnf
CPUTime_Median = 0.000740488626992
benchmarks/sgen-base-s68-g4-1.cnf
CPUTime_Median = 0.000796575850405
benchmarks/sgen-base-s68-g4-2.cnf
CPUTime_Median = 0.000639903889745
benchmarks/sgen-base-s68-g4-3.cnf
CPUTime_Median = 0.000900055305473
benchmarks/sgen-base-s68-g4-4.cnf
CPUTime_Median = 0.000753766085467
benchmarks/sgen-base-s68-g4-5.cnf
CPUTime_Median = 0.000790272426237
benchmarks/sgen-base-s68-g4-6.cnf
CPUTime_Median = 0.00044646412926
benchmarks/sgen-base-s68-g4-7.cnf
CPUTime_Median = 0.000495302537685
benchmarks/sgen-base-s68-g4-8.cnf
CPUTime_Median = 0.000989139068572
benchmarks/sgen-base-s68-g4-9.cnf
CPUTime_Median = 0.000859979066077
benchmarks/sgen-base-s72-g4-0.cnf
CPUTime_Median = 0.00134843787801
benchmarks/sgen-base-s72-g4-1.cnf
CPUTime_Median = 0.00139420937567
benchmarks/sgen-base-s72-g4-2.cnf
CPUTime_Median = 0.00104273174383
benchmarks/sgen-base-s72-g4-3.cnf
CPUTime_Median = 0.000965676922772
benchmarks/sgen-base-s72-g4-4.cnf
CPUTime_Median = 0.00103271569301
benchmarks/sgen-base-s72-g4-5.cnf
CPUTime_Median = 0.00109538877306
benchmarks/sgen-base-s72-g4-6.cnf
CPUTime_Median = 0.000944642422768
benchmarks/sgen-base-s72-g4-7.cnf
CPUTime_Median = 0.000482011341182
benchmarks/sgen-base-s72-g4-8.cnf
CPUTime_Median = 0.0017883953732
benchmarks/sgen-base-s72-g4-9.cnf
CPUTime_Median = 0.00106811525344
benchmarks/sgen-base-s72-g6-0.cnf
CPUTime_Median = 0.00027700138709
benchmarks/sgen-base-s72-g6-1.cnf
CPUTime_Median = 0.000526892327204
benchmarks/sgen-base-s72-g6-2.cnf
CPUTime_Median = 0.000207142857143
benchmarks/sgen-base-s72-g6-3.cnf
CPUTime_Median = 0.000261296238954
benchmarks/sgen-base-s72-g6-4.cnf
CPUTime_Median = 0.000491796089727
benchmarks/sgen-base-s72-g6-5.cnf
CPUTime_Median = 0.000205616088307
benchmarks/sgen-base-s72-g6-6.cnf
CPUTime_Median = 0.000401988793964
benchmarks/sgen-base-s72-g6-7.cnf
CPUTime_Median = 0.000655878703215
benchmarks/sgen-base-s72-g6-8.cnf
CPUTime_Median = 0.000259451270033
benchmarks/sgen-base-s72-g6-9.cnf
CPUTime_Median = 0.000504887563783
benchmarks/sgen-base-s76-g4-0.cnf
CPUTime_Median = 0.0013750714244
benchmarks/sgen-base-s76-g4-1.cnf
CPUTime_Median = 0.00119636152311
benchmarks/sgen-base-s76-g4-2.cnf
CPUTime_Median = 0.0022954818752
benchmarks/sgen-base-s76-g4-3.cnf
CPUTime_Median = 0.00136781946953
benchmarks/sgen-base-s76-g4-4.cnf
CPUTime_Median = 0.0014067317791
benchmarks/sgen-base-s76-g4-5.cnf
CPUTime_Median = 0.000917505165108
benchmarks/sgen-base-s76-g4-6.cnf
CPUTime_Median = 0.00146877694599
benchmarks/sgen-base-s76-g4-7.cnf
CPUTime_Median = 0.00149169832267
benchmarks/sgen-base-s76-g4-8.cnf
CPUTime_Median = 0.00162611772777
benchmarks/sgen-base-s76-g4-9.cnf
CPUTime_Median = 0.00111311646621
benchmarks/sgen-base-s80-g4-0.cnf
CPUTime_Median = 0.0016922426929
benchmarks/sgen-base-s80-g4-1.cnf
CPUTime_Median = 0.00110622748177
benchmarks/sgen-base-s80-g4-2.cnf
CPUTime_Median = 0.0015406322483
benchmarks/sgen-base-s80-g4-3.cnf
CPUTime_Median = 0.00175572086939
benchmarks/sgen-base-s80-g4-4.cnf
CPUTime_Median = 0.000606012217162
benchmarks/sgen-base-s80-g4-5.cnf
CPUTime_Median = 0.000943686118491
benchmarks/sgen-base-s80-g4-6.cnf
CPUTime_Median = 0.00129077099363
benchmarks/sgen-base-s80-g4-7.cnf
CPUTime_Median = 0.00145567474171
benchmarks/sgen-base-s80-g4-8.cnf
CPUTime_Median = 0.00127906854894
benchmarks/sgen-base-s80-g4-9.cnf
CPUTime_Median = 0.00127692457286
benchmarks/sgen-base-s80-g5-0.cnf
CPUTime_Median = 0.0011362158902
benchmarks/sgen-base-s80-g5-1.cnf
CPUTime_Median = 0.00118779022153
benchmarks/sgen-base-s80-g5-2.cnf
CPUTime_Median = 0.00210237227367
benchmarks/sgen-base-s80-g5-3.cnf
CPUTime_Median = 0.000740309710363
benchmarks/sgen-base-s80-g5-4.cnf
CPUTime_Median = 0.00220061368479
benchmarks/sgen-base-s80-g5-5.cnf
CPUTime_Median = 0.00111931536982
benchmarks/sgen-base-s80-g5-6.cnf
CPUTime_Median = 0.0010182468858
benchmarks/sgen-base-s80-g5-7.cnf
CPUTime_Median = 0.00517354890461
benchmarks/sgen-base-s80-g5-8.cnf
CPUTime_Median = 0.00170397097243
benchmarks/sgen-base-s80-g5-9.cnf
CPUTime_Median = 0.00139535639516
benchmarks/sgen-base-s84-g4-0.cnf
CPUTime_Median = 0.00117498808437
benchmarks/sgen-base-s84-g4-1.cnf
CPUTime_Median = 0.00221876768375
benchmarks/sgen-base-s84-g4-2.cnf
CPUTime_Median = 0.00182320226543
benchmarks/sgen-base-s84-g4-3.cnf
CPUTime_Median = 0.00131374723336
benchmarks/sgen-base-s84-g4-4.cnf
CPUTime_Median = 0.00235586329779
benchmarks/sgen-base-s84-g4-5.cnf
CPUTime_Median = 0.00203489205886
benchmarks/sgen-base-s84-g4-6.cnf
CPUTime_Median = 0.00171303985351
benchmarks/sgen-base-s84-g4-7.cnf
CPUTime_Median = 0.00213919326499
benchmarks/sgen-base-s84-g4-8.cnf
CPUTime_Median = 0.0015004398245
benchmarks/sgen-base-s84-g4-9.cnf
CPUTime_Median = 0.00192566846618
benchmarks/sgen-base-s84-g6-0.cnf
CPUTime_Median = 0.0007263455721
benchmarks/sgen-base-s84-g6-1.cnf
CPUTime_Median = 0.000774543233154
benchmarks/sgen-base-s84-g6-2.cnf
CPUTime_Median = 0.000422195762579
benchmarks/sgen-base-s84-g6-3.cnf
CPUTime_Median = 0.000630525889614
benchmarks/sgen-base-s84-g6-4.cnf
CPUTime_Median = 0.000580869998872
benchmarks/sgen-base-s84-g6-5.cnf
CPUTime_Median = 0.00133109914855
benchmarks/sgen-base-s84-g6-6.cnf
CPUTime_Median = 0.000627282484397
benchmarks/sgen-base-s84-g6-7.cnf
CPUTime_Median = 0.000364363234729
benchmarks/sgen-base-s84-g6-8.cnf
CPUTime_Median = 0.000682870302974
benchmarks/sgen-base-s84-g6-9.cnf
CPUTime_Median = 0.000565081198765
benchmarks/sgen-base-s88-g4-0.cnf
CPUTime_Median = 0.00136049908742
benchmarks/sgen-base-s88-g4-1.cnf
CPUTime_Median = 0.00218352056037
benchmarks/sgen-base-s88-g4-2.cnf
CPUTime_Median = 0.00219029991499
benchmarks/sgen-base-s88-g4-3.cnf
CPUTime_Median = 0.00262313606363
benchmarks/sgen-base-s88-g4-4.cnf
CPUTime_Median = 0.0016396202326
benchmarks/sgen-base-s88-g4-5.cnf
CPUTime_Median = 0.00170751809525
benchmarks/sgen-base-s88-g4-6.cnf
CPUTime_Median = 0.00214057558638
benchmarks/sgen-base-s88-g4-7.cnf
CPUTime_Median = 0.00167280037935
benchmarks/sgen-base-s88-g4-8.cnf
CPUTime_Median = 0.00261989221958
benchmarks/sgen-base-s88-g4-9.cnf
CPUTime_Median = 0.00181993181599
benchmarks/sgen-base-s92-g4-0.cnf
CPUTime_Median = 0.00268209270587
benchmarks/sgen-base-s92-g4-1.cnf
CPUTime_Median = 0.00117420884499
benchmarks/sgen-base-s92-g4-2.cnf
CPUTime_Median = 0.00276898179314
benchmarks/sgen-base-s92-g4-3.cnf
CPUTime_Median = 0.00140235527461
benchmarks/sgen-base-s92-g4-4.cnf
CPUTime_Median = 0.00322951928512
benchmarks/sgen-base-s92-g4-5.cnf
CPUTime_Median = 0.00321096374014
benchmarks/sgen-base-s92-g4-6.cnf
CPUTime_Median = 0.00262334735129
benchmarks/sgen-base-s92-g4-7.cnf
CPUTime_Median = 0.0017946253019
benchmarks/sgen-base-s92-g4-8.cnf
CPUTime_Median = 0.0030306286255
benchmarks/sgen-base-s92-g4-9.cnf
CPUTime_Median = 0.00334852805469
benchmarks/sgen-base-s96-g4-0.cnf
CPUTime_Median = 0.00200568460977
benchmarks/sgen-base-s96-g4-1.cnf
CPUTime_Median = 0.00387151930256
benchmarks/sgen-base-s96-g4-2.cnf
CPUTime_Median = 0.00200825983571
benchmarks/sgen-base-s96-g4-3.cnf
CPUTime_Median = 0.00437845291169
benchmarks/sgen-base-s96-g4-4.cnf
CPUTime_Median = 0.00255709318866
benchmarks/sgen-base-s96-g4-5.cnf
CPUTime_Median = 0.00345159640294
benchmarks/sgen-base-s96-g4-6.cnf
CPUTime_Median = 0.00262517566262
benchmarks/sgen-base-s96-g4-7.cnf
CPUTime_Median = 0.00317176027349
benchmarks/sgen-base-s96-g4-8.cnf
CPUTime_Median = 0.00392391746398
benchmarks/sgen-base-s96-g4-9.cnf
CPUTime_Median = 0.0021000099281
benchmarks/sgen-base-s96-g6-0.cnf
CPUTime_Median = 0.000937995560722
benchmarks/sgen-base-s96-g6-1.cnf
CPUTime_Median = 0.00214905139838
benchmarks/sgen-base-s96-g6-2.cnf
CPUTime_Median = 0.00111771773511
benchmarks/sgen-base-s96-g6-3.cnf
CPUTime_Median = 0.00187423123632
benchmarks/sgen-base-s96-g6-4.cnf
CPUTime_Median = 0.00116759373922
benchmarks/sgen-base-s96-g6-5.cnf
CPUTime_Median = 0.00157184039929
benchmarks/sgen-base-s96-g6-6.cnf
CPUTime_Median = 0.00115409538296
benchmarks/sgen-base-s96-g6-7.cnf
CPUTime_Median = 0.00131177176635
benchmarks/sgen-base-s96-g6-8.cnf
CPUTime_Median = 0.00251470312929
benchmarks/sgen-base-s96-g6-9.cnf
CPUTime_Median = 0.00101307547618
benchmarks/sgen-twoinfour-s100-g4-0.cnf
CPUTime_Median = 0.0304146854321
benchmarks/sgen-twoinfour-s100-g4-1.cnf
CPUTime_Median = 0.0258675257502
benchmarks/sgen-twoinfour-s100-g4-2.cnf
CPUTime_Median = 0.0102089362295
benchmarks/sgen-twoinfour-s100-g4-3.cnf
CPUTime_Median = 0.00986958026053
benchmarks/sgen-twoinfour-s100-g4-4.cnf
CPUTime_Median = 0.0383143825896
benchmarks/sgen-twoinfour-s100-g4-5.cnf
CPUTime_Median = 0.0128799141437
benchmarks/sgen-twoinfour-s100-g4-6.cnf
CPUTime_Median = 0.0365682559552
benchmarks/sgen-twoinfour-s100-g4-7.cnf
CPUTime_Median = 0.048417217097
benchmarks/sgen-twoinfour-s100-g4-8.cnf
CPUTime_Median = 0.0341683323033
benchmarks/sgen-twoinfour-s100-g4-9.cnf
CPUTime_Median = 0.0262145528267
benchmarks/sgen-twoinfour-s104-g4-0.cnf
CPUTime_Median = 0.056270270343
benchmarks/sgen-twoinfour-s104-g4-1.cnf
CPUTime_Median = 0.0282532816951
benchmarks/sgen-twoinfour-s104-g4-2.cnf
CPUTime_Median = 0.0188219318232
benchmarks/sgen-twoinfour-s104-g4-3.cnf
CPUTime_Median = 0.0233516700873
benchmarks/sgen-twoinfour-s104-g4-4.cnf
CPUTime_Median = 0.0486991720008
benchmarks/sgen-twoinfour-s104-g4-5.cnf
CPUTime_Median = 0.0352351838016
benchmarks/sgen-twoinfour-s104-g4-6.cnf
CPUTime_Median = 0.030104903506
benchmarks/sgen-twoinfour-s104-g4-7.cnf
CPUTime_Median = 0.021805160993
benchmarks/sgen-twoinfour-s104-g4-8.cnf
CPUTime_Median = 0.0220359142995
benchmarks/sgen-twoinfour-s104-g4-9.cnf
CPUTime_Median = 0.0596200632585
benchmarks/sgen-twoinfour-s108-g4-0.cnf
CPUTime_Median = 0.0342836165576
benchmarks/sgen-twoinfour-s108-g4-1.cnf
CPUTime_Median = 0.0310993269901
benchmarks/sgen-twoinfour-s108-g4-2.cnf
CPUTime_Median = 0.0709447722688
benchmarks/sgen-twoinfour-s108-g4-3.cnf
CPUTime_Median = 0.0313386033331
benchmarks/sgen-twoinfour-s108-g4-4.cnf
CPUTime_Median = 0.0406432883538
benchmarks/sgen-twoinfour-s108-g4-5.cnf
CPUTime_Median = 0.0593772357394
benchmarks/sgen-twoinfour-s108-g4-6.cnf
CPUTime_Median = 0.0770456182077
benchmarks/sgen-twoinfour-s108-g4-7.cnf
CPUTime_Median = 0.0544125873717
benchmarks/sgen-twoinfour-s108-g4-8.cnf
CPUTime_Median = 0.0521050533187
benchmarks/sgen-twoinfour-s108-g4-9.cnf
CPUTime_Median = 0.0589500125653
benchmarks/sgen-twoinfour-s112-g4-0.cnf
CPUTime_Median = 0.0825812151865
benchmarks/sgen-twoinfour-s112-g4-1.cnf
CPUTime_Median = 0.0763576406247
benchmarks/sgen-twoinfour-s112-g4-2.cnf
CPUTime_Median = 0.0800978212514
benchmarks/sgen-twoinfour-s112-g4-3.cnf
CPUTime_Median = 0.0708378463165
benchmarks/sgen-twoinfour-s112-g4-4.cnf
CPUTime_Median = 0.0725458710309
benchmarks/sgen-twoinfour-s112-g4-5.cnf
CPUTime_Median = 0.0744636616608
benchmarks/sgen-twoinfour-s112-g4-6.cnf
CPUTime_Median = 0.0746921403016
benchmarks/sgen-twoinfour-s112-g4-7.cnf
CPUTime_Median = 0.0606254378321
benchmarks/sgen-twoinfour-s112-g4-8.cnf
CPUTime_Median = 0.129338490791
benchmarks/sgen-twoinfour-s112-g4-9.cnf
CPUTime_Median = 0.0576644386567
benchmarks/sgen-twoinfour-s116-g4-0.cnf
CPUTime_Median = 0.0901574138221
benchmarks/sgen-twoinfour-s116-g4-1.cnf
CPUTime_Median = 0.102882787112
benchmarks/sgen-twoinfour-s116-g4-2.cnf
CPUTime_Median = 0.128649174482
benchmarks/sgen-twoinfour-s116-g4-3.cnf
CPUTime_Median = 0.0931152654396
benchmarks/sgen-twoinfour-s116-g4-4.cnf
CPUTime_Median = 0.0702095484072
benchmarks/sgen-twoinfour-s116-g4-5.cnf
CPUTime_Median = 0.0539835368345
benchmarks/sgen-twoinfour-s116-g4-6.cnf
CPUTime_Median = 0.0519584856687
benchmarks/sgen-twoinfour-s116-g4-7.cnf
CPUTime_Median = 0.0466981796229
benchmarks/sgen-twoinfour-s116-g4-8.cnf
CPUTime_Median = 0.0593773158761
benchmarks/sgen-twoinfour-s116-g4-9.cnf
CPUTime_Median = 0.113623123703
benchmarks/sgen-twoinfour-s120-g4-0.cnf
CPUTime_Median = 0.145936244214
benchmarks/sgen-twoinfour-s120-g4-1.cnf
CPUTime_Median = 0.130842282712
benchmarks/sgen-twoinfour-s120-g4-2.cnf
CPUTime_Median = 0.112073964595
benchmarks/sgen-twoinfour-s120-g4-3.cnf
CPUTime_Median = 0.121596710049
benchmarks/sgen-twoinfour-s120-g4-4.cnf
CPUTime_Median = 0.0882118490514
benchmarks/sgen-twoinfour-s120-g4-5.cnf
CPUTime_Median = 0.111967938432
benchmarks/sgen-twoinfour-s120-g4-6.cnf
CPUTime_Median = 0.153196349792
benchmarks/sgen-twoinfour-s120-g4-7.cnf
CPUTime_Median = 0.100808493948
benchmarks/sgen-twoinfour-s120-g4-8.cnf
CPUTime_Median = 0.0712099446216
benchmarks/sgen-twoinfour-s120-g4-9.cnf
CPUTime_Median = 0.240246543079
benchmarks/sgen-twoinfour-s124-g4-0.cnf
CPUTime_Median = 0.203954902204
benchmarks/sgen-twoinfour-s124-g4-1.cnf
CPUTime_Median = 0.19204189732
benchmarks/sgen-twoinfour-s124-g4-2.cnf
CPUTime_Median = 0.141728476591
benchmarks/sgen-twoinfour-s124-g4-3.cnf
CPUTime_Median = 0.120231221687
benchmarks/sgen-twoinfour-s124-g4-4.cnf
CPUTime_Median = 0.191735186525
benchmarks/sgen-twoinfour-s124-g4-5.cnf
CPUTime_Median = 0.137768172117
benchmarks/sgen-twoinfour-s124-g4-6.cnf
CPUTime_Median = 0.245974953446
benchmarks/sgen-twoinfour-s124-g4-7.cnf
CPUTime_Median = 0.156836226002
benchmarks/sgen-twoinfour-s124-g4-8.cnf
CPUTime_Median = 0.224771308938
benchmarks/sgen-twoinfour-s124-g4-9.cnf
CPUTime_Median = 0.179163899172
benchmarks/sgen-twoinfour-s128-g4-0.cnf
CPUTime_Median = 0.311956874934
benchmarks/sgen-twoinfour-s128-g4-1.cnf
CPUTime_Median = 0.171321006489
benchmarks/sgen-twoinfour-s128-g4-2.cnf
CPUTime_Median = 0.201117931662
benchmarks/sgen-twoinfour-s128-g4-3.cnf
CPUTime_Median = 0.226050073528
benchmarks/sgen-twoinfour-s128-g4-4.cnf
CPUTime_Median = 0.102140514757
benchmarks/sgen-twoinfour-s128-g4-5.cnf
CPUTime_Median = 0.227571258196
benchmarks/sgen-twoinfour-s128-g4-6.cnf
CPUTime_Median = 0.176866416068
benchmarks/sgen-twoinfour-s128-g4-7.cnf
CPUTime_Median = 0.212982217723
benchmarks/sgen-twoinfour-s128-g4-8.cnf
CPUTime_Median = 0.263604200218
benchmarks/sgen-twoinfour-s128-g4-9.cnf
CPUTime_Median = 0.153975423449
benchmarks/sgen-twoinfour-s132-g4-0.cnf
CPUTime_Median = 0.257635941678
benchmarks/sgen-twoinfour-s132-g4-1.cnf
CPUTime_Median = 0.303310196132
benchmarks/sgen-twoinfour-s132-g4-2.cnf
CPUTime_Median = 0.23899601178
benchmarks/sgen-twoinfour-s132-g4-3.cnf
CPUTime_Median = 0.272529263446
benchmarks/sgen-twoinfour-s132-g4-4.cnf
CPUTime_Median = 0.257731445166
benchmarks/sgen-twoinfour-s132-g4-5.cnf
CPUTime_Median = 0.3342708064
benchmarks/sgen-twoinfour-s132-g4-6.cnf
CPUTime_Median = 0.16999245385
benchmarks/sgen-twoinfour-s132-g4-7.cnf
CPUTime_Median = 0.372410372002
benchmarks/sgen-twoinfour-s132-g4-8.cnf
CPUTime_Median = 0.409668534125
benchmarks/sgen-twoinfour-s132-g4-9.cnf
CPUTime_Median = 0.309798049423
benchmarks/sgen-twoinfour-s136-g4-0.cnf
CPUTime_Median = 0.333638653134
benchmarks/sgen-twoinfour-s136-g4-1.cnf
CPUTime_Median = 0.194777002668
benchmarks/sgen-twoinfour-s136-g4-2.cnf
CPUTime_Median = 0.538953875938
benchmarks/sgen-twoinfour-s136-g4-3.cnf
CPUTime_Median = 0.297438237028
benchmarks/sgen-twoinfour-s136-g4-4.cnf
CPUTime_Median = 0.316252985346
benchmarks/sgen-twoinfour-s136-g4-5.cnf
CPUTime_Median = 0.259456339564
benchmarks/sgen-twoinfour-s136-g4-6.cnf
CPUTime_Median = 0.514201175672
benchmarks/sgen-twoinfour-s136-g4-7.cnf
CPUTime_Median = 0.558050887729
benchmarks/sgen-twoinfour-s136-g4-8.cnf
CPUTime_Median = 0.42262138042
benchmarks/sgen-twoinfour-s136-g4-9.cnf
CPUTime_Median = 0.358481504738
benchmarks/sgen-twoinfour-s140-g4-0.cnf
CPUTime_Median = 0.26448909538
benchmarks/sgen-twoinfour-s140-g4-1.cnf
CPUTime_Median = 0.498273296118
benchmarks/sgen-twoinfour-s140-g4-2.cnf
CPUTime_Median = 0.518988787031
benchmarks/sgen-twoinfour-s140-g4-3.cnf
CPUTime_Median = 0.51374556262
benchmarks/sgen-twoinfour-s140-g4-4.cnf
CPUTime_Median = 0.571405507543
benchmarks/sgen-twoinfour-s140-g4-5.cnf
CPUTime_Median = 0.461446673983
benchmarks/sgen-twoinfour-s140-g4-6.cnf
CPUTime_Median = 0.588159759905
benchmarks/sgen-twoinfour-s140-g4-7.cnf
CPUTime_Median = 0.464618131166
benchmarks/sgen-twoinfour-s140-g4-8.cnf
CPUTime_Median = 0.437615081208
benchmarks/sgen-twoinfour-s140-g4-9.cnf
CPUTime_Median = 0.353782733891
benchmarks/sgen-twoinfour-s144-g4-0.cnf
CPUTime_Median = 0.571485544301
benchmarks/sgen-twoinfour-s144-g4-1.cnf
CPUTime_Median = 0.753691468232
benchmarks/sgen-twoinfour-s144-g4-2.cnf
CPUTime_Median = 0.80873824033
benchmarks/sgen-twoinfour-s144-g4-3.cnf
CPUTime_Median = 0.684563685951
benchmarks/sgen-twoinfour-s144-g4-4.cnf
CPUTime_Median = 0.46221337593
benchmarks/sgen-twoinfour-s144-g4-5.cnf
CPUTime_Median = 0.593906447829
benchmarks/sgen-twoinfour-s144-g4-6.cnf
CPUTime_Median = 0.479955100732
benchmarks/sgen-twoinfour-s144-g4-7.cnf
CPUTime_Median = 0.767590440221
benchmarks/sgen-twoinfour-s144-g4-8.cnf
CPUTime_Median = 0.654759705939
benchmarks/sgen-twoinfour-s144-g4-9.cnf
CPUTime_Median = 0.578513742813
benchmarks/sgen-twoinfour-s148-g4-0.cnf
CPUTime_Median = 0.814263913216
benchmarks/sgen-twoinfour-s148-g4-1.cnf
CPUTime_Median = 0.769268975085
benchmarks/sgen-twoinfour-s148-g4-2.cnf
CPUTime_Median = 0.940853653611
benchmarks/sgen-twoinfour-s148-g4-3.cnf
CPUTime_Median = 0.796009642223
benchmarks/sgen-twoinfour-s148-g4-4.cnf
CPUTime_Median = 0.835603673856
benchmarks/sgen-twoinfour-s148-g4-5.cnf
CPUTime_Median = 0.830134654027
benchmarks/sgen-twoinfour-s148-g4-6.cnf
CPUTime_Median = 1.19993505062
benchmarks/sgen-twoinfour-s148-g4-7.cnf
CPUTime_Median = 0.819915339913
benchmarks/sgen-twoinfour-s148-g4-8.cnf
CPUTime_Median = 0.980710391836
benchmarks/sgen-twoinfour-s148-g4-9.cnf
CPUTime_Median = 0.746409430966
benchmarks/sgen-twoinfour-s152-g4-0.cnf
CPUTime_Median = 0.873690742965
benchmarks/sgen-twoinfour-s152-g4-1.cnf
CPUTime_Median = 1.05628096588
benchmarks/sgen-twoinfour-s152-g4-2.cnf
CPUTime_Median = 1.41330296359
benchmarks/sgen-twoinfour-s152-g4-3.cnf
CPUTime_Median = 1.2810285426
benchmarks/sgen-twoinfour-s152-g4-4.cnf
CPUTime_Median = 1.5430283753
benchmarks/sgen-twoinfour-s152-g4-5.cnf
CPUTime_Median = 1.2373705356
benchmarks/sgen-twoinfour-s152-g4-6.cnf
CPUTime_Median = 1.51970316581
benchmarks/sgen-twoinfour-s152-g4-7.cnf
CPUTime_Median = 1.10174982779
benchmarks/sgen-twoinfour-s152-g4-8.cnf
CPUTime_Median = 0.927554540684
benchmarks/sgen-twoinfour-s152-g4-9.cnf
CPUTime_Median = 1.39438553794
benchmarks/sgen-twoinfour-s156-g4-0.cnf
CPUTime_Median = 1.77266536092
benchmarks/sgen-twoinfour-s156-g4-1.cnf
CPUTime_Median = 0.882679461375
benchmarks/sgen-twoinfour-s156-g4-2.cnf
CPUTime_Median = 1.32443770863
benchmarks/sgen-twoinfour-s156-g4-3.cnf
CPUTime_Median = 1.05047950642
benchmarks/sgen-twoinfour-s156-g4-4.cnf
CPUTime_Median = 1.2491721766
benchmarks/sgen-twoinfour-s156-g4-5.cnf
CPUTime_Median = 1.92953868373
benchmarks/sgen-twoinfour-s156-g4-6.cnf
CPUTime_Median = 1.50508122109
benchmarks/sgen-twoinfour-s156-g4-7.cnf
CPUTime_Median = 1.2010128485
benchmarks/sgen-twoinfour-s156-g4-8.cnf
CPUTime_Median = 1.39279462715
benchmarks/sgen-twoinfour-s156-g4-9.cnf
CPUTime_Median = 1.42419286192
benchmarks/sgen-twoinfour-s32-g4-0.cnf
CPUTime_Median = 6.81332111213e-05
benchmarks/sgen-twoinfour-s32-g4-1.cnf
CPUTime_Median = 0
benchmarks/sgen-twoinfour-s32-g4-2.cnf
CPUTime_Median = 0
benchmarks/sgen-twoinfour-s32-g4-3.cnf
CPUTime_Median = 0
benchmarks/sgen-twoinfour-s32-g4-4.cnf
CPUTime_Median = 0
benchmarks/sgen-twoinfour-s32-g4-5.cnf
CPUTime_Median = 7.62036716315e-05
benchmarks/sgen-twoinfour-s32-g4-6.cnf
CPUTime_Median = 0
benchmarks/sgen-twoinfour-s32-g4-7.cnf
CPUTime_Median = 6.82489336104e-05
benchmarks/sgen-twoinfour-s32-g4-8.cnf
CPUTime_Median = 0
benchmarks/sgen-twoinfour-s32-g4-9.cnf
CPUTime_Median = 6.88246047962e-05
benchmarks/sgen-twoinfour-s36-g4-0.cnf
CPUTime_Median = 0.000138950496806
benchmarks/sgen-twoinfour-s36-g4-1.cnf
CPUTime_Median = 0
benchmarks/sgen-twoinfour-s36-g4-2.cnf
CPUTime_Median = 7.28709242419e-05
benchmarks/sgen-twoinfour-s36-g4-3.cnf
CPUTime_Median = 7.38452350874e-05
benchmarks/sgen-twoinfour-s36-g4-4.cnf
CPUTime_Median = 6.00065279068e-05
benchmarks/sgen-twoinfour-s36-g4-5.cnf
CPUTime_Median = 6.50364598335e-05
benchmarks/sgen-twoinfour-s36-g4-6.cnf
CPUTime_Median = 0
benchmarks/sgen-twoinfour-s36-g4-7.cnf
CPUTime_Median = 0
benchmarks/sgen-twoinfour-s36-g4-8.cnf
CPUTime_Median = 0
benchmarks/sgen-twoinfour-s36-g4-9.cnf
CPUTime_Median = 8.36373054758e-05
benchmarks/sgen-twoinfour-s40-g4-0.cnf
CPUTime_Median = 0.000105737667721
benchmarks/sgen-twoinfour-s40-g4-1.cnf
CPUTime_Median = 0.000387290204927
benchmarks/sgen-twoinfour-s40-g4-2.cnf
CPUTime_Median = 0
benchmarks/sgen-twoinfour-s40-g4-3.cnf
CPUTime_Median = 6.45157021293e-05
benchmarks/sgen-twoinfour-s40-g4-4.cnf
CPUTime_Median = 0.00013567399921
benchmarks/sgen-twoinfour-s40-g4-5.cnf
CPUTime_Median = 0.000593880091421
benchmarks/sgen-twoinfour-s40-g4-6.cnf
CPUTime_Median = 0
benchmarks/sgen-twoinfour-s40-g4-7.cnf
CPUTime_Median = 0.00036513508431
benchmarks/sgen-twoinfour-s40-g4-8.cnf
CPUTime_Median = 0.000152168399696
benchmarks/sgen-twoinfour-s40-g4-9.cnf
CPUTime_Median = 7.3434753118e-05
benchmarks/sgen-twoinfour-s44-g4-0.cnf
CPUTime_Median = 0.00050211831701
benchmarks/sgen-twoinfour-s44-g4-1.cnf
CPUTime_Median = 7.26742021475e-05
benchmarks/sgen-twoinfour-s44-g4-2.cnf
CPUTime_Median = 6.08250693075e-05
benchmarks/sgen-twoinfour-s44-g4-3.cnf
CPUTime_Median = 0.000149962838569
benchmarks/sgen-twoinfour-s44-g4-4.cnf
CPUTime_Median = 0.00083985150307
benchmarks/sgen-twoinfour-s44-g4-5.cnf
CPUTime_Median = 6.86217729339e-05
benchmarks/sgen-twoinfour-s44-g4-6.cnf
CPUTime_Median = 0.000535052345028
benchmarks/sgen-twoinfour-s44-g4-7.cnf
CPUTime_Median = 0.000201009233862
benchmarks/sgen-twoinfour-s44-g4-8.cnf
CPUTime_Median = 0.000143826369899
benchmarks/sgen-twoinfour-s44-g4-9.cnf
CPUTime_Median = 6.69015561428e-05
benchmarks/sgen-twoinfour-s48-g4-0.cnf
CPUTime_Median = 0.000346724852038
benchmarks/sgen-twoinfour-s48-g4-1.cnf
CPUTime_Median = 0.000336537073917
benchmarks/sgen-twoinfour-s48-g4-2.cnf
CPUTime_Median = 0.000272082774478
benchmarks/sgen-twoinfour-s48-g4-3.cnf
CPUTime_Median = 0.000327011118378
benchmarks/sgen-twoinfour-s48-g4-4.cnf
CPUTime_Median = 0.000327839620959
benchmarks/sgen-twoinfour-s48-g4-5.cnf
CPUTime_Median = 0.000125902337862
benchmarks/sgen-twoinfour-s48-g4-6.cnf
CPUTime_Median = 0.000124740386431
benchmarks/sgen-twoinfour-s48-g4-7.cnf
CPUTime_Median = 0.000378465923814
benchmarks/sgen-twoinfour-s48-g4-8.cnf
CPUTime_Median = 8.23875391618e-05
benchmarks/sgen-twoinfour-s48-g4-9.cnf
CPUTime_Median = 0.000157448611994
benchmarks/sgen-twoinfour-s52-g4-0.cnf
CPUTime_Median = 0.000719927537067
benchmarks/sgen-twoinfour-s52-g4-1.cnf
CPUTime_Median = 0.000746826804968
benchmarks/sgen-twoinfour-s52-g4-2.cnf
CPUTime_Median = 0.000268125758722
benchmarks/sgen-twoinfour-s52-g4-3.cnf
CPUTime_Median = 0.000205309571927
benchmarks/sgen-twoinfour-s52-g4-4.cnf
CPUTime_Median = 0.000487935363203
benchmarks/sgen-twoinfour-s52-g4-5.cnf
CPUTime_Median = 0.000260603062214
benchmarks/sgen-twoinfour-s52-g4-6.cnf
CPUTime_Median = 0.000221056368585
benchmarks/sgen-twoinfour-s52-g4-7.cnf
CPUTime_Median = 0.000739954438653
benchmarks/sgen-twoinfour-s52-g4-8.cnf
CPUTime_Median = 0.000367092532544
benchmarks/sgen-twoinfour-s52-g4-9.cnf
CPUTime_Median = 0.000431432462055
benchmarks/sgen-twoinfour-s56-g4-0.cnf
CPUTime_Median = 0.000544457095539
benchmarks/sgen-twoinfour-s56-g4-1.cnf
CPUTime_Median = 0.000401926487978
benchmarks/sgen-twoinfour-s56-g4-2.cnf
CPUTime_Median = 0.000311811086175
benchmarks/sgen-twoinfour-s56-g4-3.cnf
CPUTime_Median = 0.00166181271292
benchmarks/sgen-twoinfour-s56-g4-4.cnf
CPUTime_Median = 0.000435517207441
benchmarks/sgen-twoinfour-s56-g4-5.cnf
CPUTime_Median = 0.000302029270455
benchmarks/sgen-twoinfour-s56-g4-6.cnf
CPUTime_Median = 0.000636570557265
benchmarks/sgen-twoinfour-s56-g4-7.cnf
CPUTime_Median = 0.000361840431192
benchmarks/sgen-twoinfour-s56-g4-8.cnf
CPUTime_Median = 0.000248580959968
benchmarks/sgen-twoinfour-s56-g4-9.cnf
CPUTime_Median = 0.00036732517232
benchmarks/sgen-twoinfour-s60-g4-0.cnf
CPUTime_Median = 0.000609542399574
benchmarks/sgen-twoinfour-s60-g4-1.cnf
CPUTime_Median = 0.000709428182054
benchmarks/sgen-twoinfour-s60-g4-2.cnf
CPUTime_Median = 0.000943816576021
benchmarks/sgen-twoinfour-s60-g4-3.cnf
CPUTime_Median = 0.00141763058226
benchmarks/sgen-twoinfour-s60-g4-4.cnf
CPUTime_Median = 0.000967204113318
benchmarks/sgen-twoinfour-s60-g4-5.cnf
CPUTime_Median = 0.00065891852814
benchmarks/sgen-twoinfour-s60-g4-6.cnf
CPUTime_Median = 0.00195092935499
benchmarks/sgen-twoinfour-s60-g4-7.cnf
CPUTime_Median = 0.00232646661414
benchmarks/sgen-twoinfour-s60-g4-8.cnf
CPUTime_Median = 0.000775017666896
benchmarks/sgen-twoinfour-s60-g4-9.cnf
CPUTime_Median = 0.00214050576456
benchmarks/sgen-twoinfour-s64-g4-0.cnf
CPUTime_Median = 0.00107404402945
benchmarks/sgen-twoinfour-s64-g4-1.cnf
CPUTime_Median = 0.00136006149435
benchmarks/sgen-twoinfour-s64-g4-2.cnf
CPUTime_Median = 0.000354973983535
benchmarks/sgen-twoinfour-s64-g4-3.cnf
CPUTime_Median = 0.00267598135635
benchmarks/sgen-twoinfour-s64-g4-4.cnf
CPUTime_Median = 0.00326993036928
benchmarks/sgen-twoinfour-s64-g4-5.cnf
CPUTime_Median = 0.000850433322867
benchmarks/sgen-twoinfour-s64-g4-6.cnf
CPUTime_Median = 0.00126170419915
benchmarks/sgen-twoinfour-s64-g4-7.cnf
CPUTime_Median = 0.00155217569417
benchmarks/sgen-twoinfour-s64-g4-8.cnf
CPUTime_Median = 0.00340892213892
benchmarks/sgen-twoinfour-s64-g4-9.cnf
CPUTime_Median = 0.00124651295942
benchmarks/sgen-twoinfour-s68-g4-0.cnf
CPUTime_Median = 0.000903290173069
benchmarks/sgen-twoinfour-s68-g4-1.cnf
CPUTime_Median = 0.00413031651344
benchmarks/sgen-twoinfour-s68-g4-2.cnf
CPUTime_Median = 0.00277858573766
benchmarks/sgen-twoinfour-s68-g4-3.cnf
CPUTime_Median = 0.0007964605482
benchmarks/sgen-twoinfour-s68-g4-4.cnf
CPUTime_Median = 0.00523918901259
benchmarks/sgen-twoinfour-s68-g4-5.cnf
CPUTime_Median = 0.00154440632382
benchmarks/sgen-twoinfour-s68-g4-6.cnf
CPUTime_Median = 0.00162839366975
benchmarks/sgen-twoinfour-s68-g4-7.cnf
CPUTime_Median = 0.00131559364542
benchmarks/sgen-twoinfour-s68-g4-8.cnf
CPUTime_Median = 0.0018011950487
benchmarks/sgen-twoinfour-s68-g4-9.cnf
CPUTime_Median = 0.000865314445568
benchmarks/sgen-twoinfour-s72-g4-0.cnf
CPUTime_Median = 0.00194622224994
benchmarks/sgen-twoinfour-s72-g4-1.cnf
CPUTime_Median = 0.00111035271436
benchmarks/sgen-twoinfour-s72-g4-2.cnf
CPUTime_Median = 0.00209280343827
benchmarks/sgen-twoinfour-s72-g4-3.cnf
CPUTime_Median = 0.00135090652368
benchmarks/sgen-twoinfour-s72-g4-4.cnf
CPUTime_Median = 0.00412423475508
benchmarks/sgen-twoinfour-s72-g4-5.cnf
CPUTime_Median = 0.00621933881413
benchmarks/sgen-twoinfour-s72-g4-6.cnf
CPUTime_Median = 0.0021418902439
benchmarks/sgen-twoinfour-s72-g4-7.cnf
CPUTime_Median = 0.00137951699794
benchmarks/sgen-twoinfour-s72-g4-8.cnf
CPUTime_Median = 0.002158565265
benchmarks/sgen-twoinfour-s72-g4-9.cnf
CPUTime_Median = 0.00426840800122
benchmarks/sgen-twoinfour-s76-g4-0.cnf
CPUTime_Median = 0.00922174289079
benchmarks/sgen-twoinfour-s76-g4-1.cnf
CPUTime_Median = 0.00248703630326
benchmarks/sgen-twoinfour-s76-g4-2.cnf
CPUTime_Median = 0.00744158146315
benchmarks/sgen-twoinfour-s76-g4-3.cnf
CPUTime_Median = 0.00475882098699
benchmarks/sgen-twoinfour-s76-g4-4.cnf
CPUTime_Median = 0.00123527920191
benchmarks/sgen-twoinfour-s76-g4-5.cnf
CPUTime_Median = 0.00584061785778
benchmarks/sgen-twoinfour-s76-g4-6.cnf
CPUTime_Median = 0.00629450635384
benchmarks/sgen-twoinfour-s76-g4-7.cnf
CPUTime_Median = 0.00417455806726
benchmarks/sgen-twoinfour-s76-g4-8.cnf
CPUTime_Median = 0.00446646610154
benchmarks/sgen-twoinfour-s76-g4-9.cnf
CPUTime_Median = 0.00281053924488
benchmarks/sgen-twoinfour-s80-g4-0.cnf
CPUTime_Median = 0.00376089943793
benchmarks/sgen-twoinfour-s80-g4-1.cnf
CPUTime_Median = 0.00890063907433
benchmarks/sgen-twoinfour-s80-g4-2.cnf
CPUTime_Median = 0.00713277767831
benchmarks/sgen-twoinfour-s80-g4-3.cnf
CPUTime_Median = 0.00283766764484
benchmarks/sgen-twoinfour-s80-g4-4.cnf
CPUTime_Median = 0.0041338518996
benchmarks/sgen-twoinfour-s80-g4-5.cnf
CPUTime_Median = 0.00527359297354
benchmarks/sgen-twoinfour-s80-g4-6.cnf
CPUTime_Median = 0.00571763647175
benchmarks/sgen-twoinfour-s80-g4-7.cnf
CPUTime_Median = 0.00351971794941
benchmarks/sgen-twoinfour-s80-g4-8.cnf
CPUTime_Median = 0.00474846427959
benchmarks/sgen-twoinfour-s80-g4-9.cnf
CPUTime_Median = 0.00345177605594
benchmarks/sgen-twoinfour-s84-g4-0.cnf
CPUTime_Median = 0.0134237638248
benchmarks/sgen-twoinfour-s84-g4-1.cnf
CPUTime_Median = 0.00399673247258
benchmarks/sgen-twoinfour-s84-g4-2.cnf
CPUTime_Median = 0.00381448042778
benchmarks/sgen-twoinfour-s84-g4-3.cnf
CPUTime_Median = 0.0134953059555
benchmarks/sgen-twoinfour-s84-g4-4.cnf
CPUTime_Median = 0.0131617559634
benchmarks/sgen-twoinfour-s84-g4-5.cnf
CPUTime_Median = 0.00481216608169
benchmarks/sgen-twoinfour-s84-g4-6.cnf
CPUTime_Median = 0.00981689529672
benchmarks/sgen-twoinfour-s84-g4-7.cnf
CPUTime_Median = 0.00992326806964
benchmarks/sgen-twoinfour-s84-g4-8.cnf
CPUTime_Median = 0.00408047232696
benchmarks/sgen-twoinfour-s84-g4-9.cnf
CPUTime_Median = 0.0111405433566
benchmarks/sgen-twoinfour-s88-g4-0.cnf
CPUTime_Median = 0.0145906848661
benchmarks/sgen-twoinfour-s88-g4-1.cnf
CPUTime_Median = 0.0206790593243
benchmarks/sgen-twoinfour-s88-g4-2.cnf
CPUTime_Median = 0.00404812136391
benchmarks/sgen-twoinfour-s88-g4-3.cnf
CPUTime_Median = 0.0124749483744
benchmarks/sgen-twoinfour-s88-g4-4.cnf
CPUTime_Median = 0.00787722907383
benchmarks/sgen-twoinfour-s88-g4-5.cnf
CPUTime_Median = 0.0173332091748
benchmarks/sgen-twoinfour-s88-g4-6.cnf
CPUTime_Median = 0.0113945603604
benchmarks/sgen-twoinfour-s88-g4-7.cnf
CPUTime_Median = 0.00572515855967
benchmarks/sgen-twoinfour-s88-g4-8.cnf
CPUTime_Median = 0.01580504088
benchmarks/sgen-twoinfour-s88-g4-9.cnf
CPUTime_Median = 0.0183651505618
benchmarks/sgen-twoinfour-s92-g4-0.cnf
CPUTime_Median = 0.0206532649496
benchmarks/sgen-twoinfour-s92-g4-1.cnf
CPUTime_Median = 0.0123508008187
benchmarks/sgen-twoinfour-s92-g4-2.cnf
CPUTime_Median = 0.013920699166
benchmarks/sgen-twoinfour-s92-g4-3.cnf
CPUTime_Median = 0.02212272038
benchmarks/sgen-twoinfour-s92-g4-4.cnf
CPUTime_Median = 0.0243169876787
benchmarks/sgen-twoinfour-s92-g4-5.cnf
CPUTime_Median = 0.0303235394123
benchmarks/sgen-twoinfour-s92-g4-6.cnf
CPUTime_Median = 0.019812144874
benchmarks/sgen-twoinfour-s92-g4-7.cnf
CPUTime_Median = 0.00787466184496
benchmarks/sgen-twoinfour-s92-g4-8.cnf
CPUTime_Median = 0.0103515946401
benchmarks/sgen-twoinfour-s92-g4-9.cnf
CPUTime_Median = 0.00531284797369
benchmarks/sgen-twoinfour-s96-g4-0.cnf
CPUTime_Median = 0.0206753602896
benchmarks/sgen-twoinfour-s96-g4-1.cnf
CPUTime_Median = 0.0196456150014
benchmarks/sgen-twoinfour-s96-g4-2.cnf
CPUTime_Median = 0.0295748800312
benchmarks/sgen-twoinfour-s96-g4-3.cnf
CPUTime_Median = 0.0280179197949
benchmarks/sgen-twoinfour-s96-g4-4.cnf
CPUTime_Median = 0.0286948469115
benchmarks/sgen-twoinfour-s96-g4-5.cnf
CPUTime_Median = 0.0262091537427
benchmarks/sgen-twoinfour-s96-g4-6.cnf
CPUTime_Median = 0.0291116467189
benchmarks/sgen-twoinfour-s96-g4-7.cnf
CPUTime_Median = 0.019370992488
benchmarks/sgen-twoinfour-s96-g4-8.cnf
CPUTime_Median = 0.0147446183601
benchmarks/sgen-twoinfour-s96-g4-9.cnf
CPUTime_Median = 0.0122358185838
